-- Merging decision tree log ---
manifest
ADDED from C:\Users\UNION\Documents\AndroidStudioProjects\slcbmbank\app\src\main\AndroidManifest.xml:2:1-634:12
	package
		ADDED from C:\Users\UNION\Documents\AndroidStudioProjects\slcbmbank\app\src\main\AndroidManifest.xml:3:5-32
		INJECTED from C:\Users\UNION\Documents\AndroidStudioProjects\slcbmbank\app\src\main\AndroidManifest.xml
		INJECTED from C:\Users\UNION\Documents\AndroidStudioProjects\slcbmbank\app\src\main\AndroidManifest.xml
	android:versionName
		ADDED from C:\Users\UNION\Documents\AndroidStudioProjects\slcbmbank\app\src\main\AndroidManifest.xml:6:5-30
		INJECTED from C:\Users\UNION\Documents\AndroidStudioProjects\slcbmbank\app\src\main\AndroidManifest.xml
		INJECTED from C:\Users\UNION\Documents\AndroidStudioProjects\slcbmbank\app\src\main\AndroidManifest.xml
	android:versionCode
		ADDED from C:\Users\UNION\Documents\AndroidStudioProjects\slcbmbank\app\src\main\AndroidManifest.xml:5:5-28
		INJECTED from C:\Users\UNION\Documents\AndroidStudioProjects\slcbmbank\app\src\main\AndroidManifest.xml
		INJECTED from C:\Users\UNION\Documents\AndroidStudioProjects\slcbmbank\app\src\main\AndroidManifest.xml
	xmlns:android
		ADDED from C:\Users\UNION\Documents\AndroidStudioProjects\slcbmbank\app\src\main\AndroidManifest.xml:2:11-69
	android:installLocation
		ADDED from C:\Users\UNION\Documents\AndroidStudioProjects\slcbmbank\app\src\main\AndroidManifest.xml:4:5-43
uses-sdk
ADDED from C:\Users\UNION\Documents\AndroidStudioProjects\slcbmbank\app\src\main\AndroidManifest.xml:8:5-10:41
MERGED from [com.android.support:design:24.1.1] C:\Users\UNION\.android\build-cache\c0dc30437f92cec66d123f2db5bf7440507303a0\output\AndroidManifest.xml:20:5-43
MERGED from [com.android.support:recyclerview-v7:24.1.1] C:\Users\UNION\.android\build-cache\8c0b857d854e0c424044aef66053a591c3c56637\output\AndroidManifest.xml:20:5-43
MERGED from [com.google.android.gms:play-services-maps:10.0.1] C:\Users\UNION\.android\build-cache\b24bd9ebd322732aa4e13778a805594180e40b43\output\AndroidManifest.xml:23:5-42
MERGED from [com.google.android.gms:play-services-location:10.0.1] C:\Users\UNION\.android\build-cache\bcf7ec8b92ff197bc7736fdc13536e46d98d95fa\output\AndroidManifest.xml:3:5-42
MERGED from [me.dm7.barcodescanner:zbar:1.8.2] C:\Users\UNION\.android\build-cache\5226d3b0d7292c3e74d5275752f37328d1a35c83\output\AndroidManifest.xml:7:5-9:41
MERGED from [me.dm7.barcodescanner:core:1.8.2] C:\Users\UNION\.android\build-cache\28afd9521e539d3ec00f7de3b689983934ef2334\output\AndroidManifest.xml:7:5-9:41
MERGED from [com.google.android.gms:play-services-vision:10.0.1] C:\Users\UNION\.android\build-cache\1294f4f7a7bce84cffe01a8e7e3c41a987e16eaa\output\AndroidManifest.xml:3:5-42
MERGED from [com.google.android.gms:play-services-base:10.0.1] C:\Users\UNION\.android\build-cache\91a1c675c66753ecd0f55d7ec55a007cf78f28c8\output\AndroidManifest.xml:17:5-42
MERGED from [com.theartofdev.edmodo:android-image-cropper:2.3.1] C:\Users\UNION\.android\build-cache\304f0b02b1c97cf3597282f5b0f26e847dd2a449\output\AndroidManifest.xml:8:5-10:41
MERGED from [com.android.support:appcompat-v7:24.1.1] C:\Users\UNION\.android\build-cache\b9423f6c93f14c8bdf77dff1fc88578855a3b890\output\AndroidManifest.xml:21:5-23:78
MERGED from [com.android.support:animated-vector-drawable:24.1.1] C:\Users\UNION\.android\build-cache\27b19eec5131b2a23fa4581d6f561bd8e808ab05\output\AndroidManifest.xml:20:5-44
MERGED from [com.android.support:support-vector-drawable:24.1.1] C:\Users\UNION\.android\build-cache\c5b60a0a80e03fc5ea90db78be98384f2efa84eb\output\AndroidManifest.xml:21:5-43
MERGED from [de.hdodenhof:circleimageview:2.2.0] C:\Users\UNION\.android\build-cache\f60eb27fc75c70e4f59e626f19c37eb4744dd394\output\AndroidManifest.xml:5:5-7:41
MERGED from [com.google.firebase:firebase-crash:10.0.1] C:\Users\UNION\.android\build-cache\0cfa5d4561b3cf7d671ced739efd01bf682bc836\output\AndroidManifest.xml:20:5-42
MERGED from [slcbmbank:imageSDK-release:unspecified] C:\Users\UNION\.android\build-cache\f93dc1cf109378559018b540560f0ed71504261d\output\AndroidManifest.xml:7:5-9:41
MERGED from [com.google.firebase:firebase-core:10.0.1] C:\Users\UNION\.android\build-cache\54bbef8f4a2dd822e592977fdce3961b738374eb\output\AndroidManifest.xml:4:5-42
MERGED from [com.google.firebase:firebase-analytics:10.0.1] C:\Users\UNION\.android\build-cache\87a304b26f280042319e45e8e58cae5e7c232b38\output\AndroidManifest.xml:17:5-42
MERGED from [com.google.firebase:firebase-analytics-impl:10.0.1] C:\Users\UNION\.android\build-cache\1d61e96147f9d8ae2d5528cc3fe8d2d80259a88c\output\AndroidManifest.xml:17:5-42
MERGED from [com.google.firebase:firebase-iid:10.0.1] C:\Users\UNION\.android\build-cache\3ce67e214e45ff4300318dbe1b14b831b1ee879f\output\AndroidManifest.xml:17:5-42
MERGED from [com.google.firebase:firebase-common:10.0.1] C:\Users\UNION\.android\build-cache\85b9118ff06823f39a56e1114e26332ee505ec58\output\AndroidManifest.xml:3:5-42
MERGED from [com.google.android.gms:play-services-tasks:10.0.1] C:\Users\UNION\.android\build-cache\c97ec40028bea36f897bd99632b646530929fd29\output\AndroidManifest.xml:3:5-42
MERGED from [com.google.android.gms:play-services-basement:10.0.1] C:\Users\UNION\.android\build-cache\8dc9330b6dc3a0eacb5882a8ff7fca17739364fc\output\AndroidManifest.xml:17:5-42
MERGED from [com.android.support:support-v4:24.1.1] C:\Users\UNION\.android\build-cache\e3211f32df1ed7ce7a29504138bfc687c0244177\output\AndroidManifest.xml:21:5-23:54
	tools:overrideLibrary
		ADDED from [com.android.support:appcompat-v7:24.1.1] C:\Users\UNION\.android\build-cache\b9423f6c93f14c8bdf77dff1fc88578855a3b890\output\AndroidManifest.xml:23:9-75
	android:targetSdkVersion
		ADDED from C:\Users\UNION\Documents\AndroidStudioProjects\slcbmbank\app\src\main\AndroidManifest.xml:10:9-38
		INJECTED from C:\Users\UNION\Documents\AndroidStudioProjects\slcbmbank\app\src\main\AndroidManifest.xml
		INJECTED from C:\Users\UNION\Documents\AndroidStudioProjects\slcbmbank\app\src\main\AndroidManifest.xml
	android:minSdkVersion
		ADDED from C:\Users\UNION\Documents\AndroidStudioProjects\slcbmbank\app\src\main\AndroidManifest.xml:9:9-35
		INJECTED from C:\Users\UNION\Documents\AndroidStudioProjects\slcbmbank\app\src\main\AndroidManifest.xml
		INJECTED from C:\Users\UNION\Documents\AndroidStudioProjects\slcbmbank\app\src\main\AndroidManifest.xml
uses-permission#android.permission.ACCESS_NETWORK_STATE
ADDED from C:\Users\UNION\Documents\AndroidStudioProjects\slcbmbank\app\src\main\AndroidManifest.xml:12:5-79
MERGED from [com.google.android.gms:play-services-maps:10.0.1] C:\Users\UNION\.android\build-cache\b24bd9ebd322732aa4e13778a805594180e40b43\output\AndroidManifest.xml:19:5-78
MERGED from [com.google.firebase:firebase-analytics:10.0.1] C:\Users\UNION\.android\build-cache\87a304b26f280042319e45e8e58cae5e7c232b38\output\AndroidManifest.xml:21:5-78
MERGED from [com.google.firebase:firebase-analytics-impl:10.0.1] C:\Users\UNION\.android\build-cache\1d61e96147f9d8ae2d5528cc3fe8d2d80259a88c\output\AndroidManifest.xml:21:5-78
MERGED from [com.google.firebase:firebase-iid:10.0.1] C:\Users\UNION\.android\build-cache\3ce67e214e45ff4300318dbe1b14b831b1ee879f\output\AndroidManifest.xml:19:5-78
	android:name
		ADDED from C:\Users\UNION\Documents\AndroidStudioProjects\slcbmbank\app\src\main\AndroidManifest.xml:12:22-76
uses-permission#android.permission.ACCESS_WIFI_STATE
ADDED from C:\Users\UNION\Documents\AndroidStudioProjects\slcbmbank\app\src\main\AndroidManifest.xml:13:5-76
	android:name
		ADDED from C:\Users\UNION\Documents\AndroidStudioProjects\slcbmbank\app\src\main\AndroidManifest.xml:13:22-73
uses-permission#android.permission.INTERNET
ADDED from C:\Users\UNION\Documents\AndroidStudioProjects\slcbmbank\app\src\main\AndroidManifest.xml:14:5-67
MERGED from [com.google.android.gms:play-services-maps:10.0.1] C:\Users\UNION\.android\build-cache\b24bd9ebd322732aa4e13778a805594180e40b43\output\AndroidManifest.xml:20:5-66
MERGED from [com.google.firebase:firebase-crash:10.0.1] C:\Users\UNION\.android\build-cache\0cfa5d4561b3cf7d671ced739efd01bf682bc836\output\AndroidManifest.xml:18:5-66
MERGED from [com.google.firebase:firebase-analytics:10.0.1] C:\Users\UNION\.android\build-cache\87a304b26f280042319e45e8e58cae5e7c232b38\output\AndroidManifest.xml:20:5-66
MERGED from [com.google.firebase:firebase-analytics-impl:10.0.1] C:\Users\UNION\.android\build-cache\1d61e96147f9d8ae2d5528cc3fe8d2d80259a88c\output\AndroidManifest.xml:20:5-66
MERGED from [com.google.firebase:firebase-iid:10.0.1] C:\Users\UNION\.android\build-cache\3ce67e214e45ff4300318dbe1b14b831b1ee879f\output\AndroidManifest.xml:20:5-66
	android:name
		ADDED from C:\Users\UNION\Documents\AndroidStudioProjects\slcbmbank\app\src\main\AndroidManifest.xml:14:22-64
uses-permission#com.unionsg.blink.permission.MAPS_RECEIVE
ADDED from C:\Users\UNION\Documents\AndroidStudioProjects\slcbmbank\app\src\main\AndroidManifest.xml:15:5-81
	android:name
		ADDED from C:\Users\UNION\Documents\AndroidStudioProjects\slcbmbank\app\src\main\AndroidManifest.xml:15:22-78
uses-permission#android.permission.ACCESS_FINE_LOCATION
ADDED from C:\Users\UNION\Documents\AndroidStudioProjects\slcbmbank\app\src\main\AndroidManifest.xml:16:5-78
	android:name
		ADDED from C:\Users\UNION\Documents\AndroidStudioProjects\slcbmbank\app\src\main\AndroidManifest.xml:16:22-76
uses-permission#android.permission.ACCESS_COARSE_LOCATION
ADDED from C:\Users\UNION\Documents\AndroidStudioProjects\slcbmbank\app\src\main\AndroidManifest.xml:17:5-80
	android:name
		ADDED from C:\Users\UNION\Documents\AndroidStudioProjects\slcbmbank\app\src\main\AndroidManifest.xml:17:22-78
uses-permission#android.permission.CAMERA
ADDED from C:\Users\UNION\Documents\AndroidStudioProjects\slcbmbank\app\src\main\AndroidManifest.xml:18:5-65
	android:name
		ADDED from C:\Users\UNION\Documents\AndroidStudioProjects\slcbmbank\app\src\main\AndroidManifest.xml:18:22-62
uses-permission#android.permission.WRITE_EXTERNAL_STORAGE
ADDED from C:\Users\UNION\Documents\AndroidStudioProjects\slcbmbank\app\src\main\AndroidManifest.xml:19:5-81
	android:name
		ADDED from C:\Users\UNION\Documents\AndroidStudioProjects\slcbmbank\app\src\main\AndroidManifest.xml:19:22-78
uses-permission#android.permission.READ_EXTERNAL_STORAGE
ADDED from C:\Users\UNION\Documents\AndroidStudioProjects\slcbmbank\app\src\main\AndroidManifest.xml:20:5-80
	android:name
		ADDED from C:\Users\UNION\Documents\AndroidStudioProjects\slcbmbank\app\src\main\AndroidManifest.xml:20:22-77
uses-permission#android.permission.CALL_PHONE
ADDED from C:\Users\UNION\Documents\AndroidStudioProjects\slcbmbank\app\src\main\AndroidManifest.xml:21:5-69
	android:name
		ADDED from C:\Users\UNION\Documents\AndroidStudioProjects\slcbmbank\app\src\main\AndroidManifest.xml:21:22-66
uses-permission#android.Manifest.permission.READ_PHONE_STATE
ADDED from C:\Users\UNION\Documents\AndroidStudioProjects\slcbmbank\app\src\main\AndroidManifest.xml:22:5-84
	android:name
		ADDED from C:\Users\UNION\Documents\AndroidStudioProjects\slcbmbank\app\src\main\AndroidManifest.xml:22:22-81
uses-permission#android.permission.USE_FINGERPRINT
ADDED from C:\Users\UNION\Documents\AndroidStudioProjects\slcbmbank\app\src\main\AndroidManifest.xml:23:5-74
	android:name
		ADDED from C:\Users\UNION\Documents\AndroidStudioProjects\slcbmbank\app\src\main\AndroidManifest.xml:23:22-71
uses-permission#android.permission.GET_TASKS
ADDED from C:\Users\UNION\Documents\AndroidStudioProjects\slcbmbank\app\src\main\AndroidManifest.xml:24:5-68
	android:name
		ADDED from C:\Users\UNION\Documents\AndroidStudioProjects\slcbmbank\app\src\main\AndroidManifest.xml:24:22-65
permission#com.unionsg.blink.permission.MAPS_RECEIVE
ADDED from C:\Users\UNION\Documents\AndroidStudioProjects\slcbmbank\app\src\main\AndroidManifest.xml:27:5-29:47
	android:protectionLevel
		ADDED from C:\Users\UNION\Documents\AndroidStudioProjects\slcbmbank\app\src\main\AndroidManifest.xml:29:9-44
	android:name
		ADDED from C:\Users\UNION\Documents\AndroidStudioProjects\slcbmbank\app\src\main\AndroidManifest.xml:28:9-65
uses-feature#android.hardware.camera
ADDED from C:\Users\UNION\Documents\AndroidStudioProjects\slcbmbank\app\src\main\AndroidManifest.xml:31:5-32:34
	android:required
		ADDED from C:\Users\UNION\Documents\AndroidStudioProjects\slcbmbank\app\src\main\AndroidManifest.xml:32:9-32
	android:name
		ADDED from C:\Users\UNION\Documents\AndroidStudioProjects\slcbmbank\app\src\main\AndroidManifest.xml:31:19-57
uses-feature#android.hardware.camera.autofocus
ADDED from C:\Users\UNION\Documents\AndroidStudioProjects\slcbmbank\app\src\main\AndroidManifest.xml:33:5-94
	android:required
		ADDED from C:\Users\UNION\Documents\AndroidStudioProjects\slcbmbank\app\src\main\AndroidManifest.xml:33:68-92
	android:name
		ADDED from C:\Users\UNION\Documents\AndroidStudioProjects\slcbmbank\app\src\main\AndroidManifest.xml:33:19-67
uses-feature#android.hardware.camera.front
ADDED from C:\Users\UNION\Documents\AndroidStudioProjects\slcbmbank\app\src\main\AndroidManifest.xml:34:5-90
	android:required
		ADDED from C:\Users\UNION\Documents\AndroidStudioProjects\slcbmbank\app\src\main\AndroidManifest.xml:34:64-88
	android:name
		ADDED from C:\Users\UNION\Documents\AndroidStudioProjects\slcbmbank\app\src\main\AndroidManifest.xml:34:19-63
uses-feature#android.hardware.camera.front.autofocus
ADDED from C:\Users\UNION\Documents\AndroidStudioProjects\slcbmbank\app\src\main\AndroidManifest.xml:35:5-100
	android:required
		ADDED from C:\Users\UNION\Documents\AndroidStudioProjects\slcbmbank\app\src\main\AndroidManifest.xml:35:74-98
	android:name
		ADDED from C:\Users\UNION\Documents\AndroidStudioProjects\slcbmbank\app\src\main\AndroidManifest.xml:35:19-73
uses-feature#0x00020000
ADDED from C:\Users\UNION\Documents\AndroidStudioProjects\slcbmbank\app\src\main\AndroidManifest.xml:36:5-38:34
MERGED from [com.google.android.gms:play-services-maps:10.0.1] C:\Users\UNION\.android\build-cache\b24bd9ebd322732aa4e13778a805594180e40b43\output\AndroidManifest.xml:21:5-77
MERGED from [slcbmbank:imageSDK-release:unspecified] C:\Users\UNION\.android\build-cache\f93dc1cf109378559018b540560f0ed71504261d\output\AndroidManifest.xml:12:5-14:35
	android:glEsVersion
		ADDED from C:\Users\UNION\Documents\AndroidStudioProjects\slcbmbank\app\src\main\AndroidManifest.xml:37:9-41
	android:required
		ADDED from C:\Users\UNION\Documents\AndroidStudioProjects\slcbmbank\app\src\main\AndroidManifest.xml:38:9-32
application
ADDED from C:\Users\UNION\Documents\AndroidStudioProjects\slcbmbank\app\src\main\AndroidManifest.xml:42:5-632:19
MERGED from [com.android.support:design:24.1.1] C:\Users\UNION\.android\build-cache\c0dc30437f92cec66d123f2db5bf7440507303a0\output\AndroidManifest.xml:22:5-20
MERGED from [com.google.android.gms:play-services-maps:10.0.1] C:\Users\UNION\.android\build-cache\b24bd9ebd322732aa4e13778a805594180e40b43\output\AndroidManifest.xml:24:5-19
MERGED from [com.google.android.gms:play-services-location:10.0.1] C:\Users\UNION\.android\build-cache\bcf7ec8b92ff197bc7736fdc13536e46d98d95fa\output\AndroidManifest.xml:4:5-19
MERGED from [me.dm7.barcodescanner:zbar:1.8.2] C:\Users\UNION\.android\build-cache\5226d3b0d7292c3e74d5275752f37328d1a35c83\output\AndroidManifest.xml:11:5-20
MERGED from [me.dm7.barcodescanner:core:1.8.2] C:\Users\UNION\.android\build-cache\28afd9521e539d3ec00f7de3b689983934ef2334\output\AndroidManifest.xml:11:5-20
MERGED from [com.google.android.gms:play-services-vision:10.0.1] C:\Users\UNION\.android\build-cache\1294f4f7a7bce84cffe01a8e7e3c41a987e16eaa\output\AndroidManifest.xml:4:5-19
MERGED from [com.google.android.gms:play-services-base:10.0.1] C:\Users\UNION\.android\build-cache\91a1c675c66753ecd0f55d7ec55a007cf78f28c8\output\AndroidManifest.xml:18:5-20:19
MERGED from [com.android.support:appcompat-v7:24.1.1] C:\Users\UNION\.android\build-cache\b9423f6c93f14c8bdf77dff1fc88578855a3b890\output\AndroidManifest.xml:25:5-20
MERGED from [com.android.support:animated-vector-drawable:24.1.1] C:\Users\UNION\.android\build-cache\27b19eec5131b2a23fa4581d6f561bd8e808ab05\output\AndroidManifest.xml:22:5-20
MERGED from [com.android.support:support-vector-drawable:24.1.1] C:\Users\UNION\.android\build-cache\c5b60a0a80e03fc5ea90db78be98384f2efa84eb\output\AndroidManifest.xml:23:5-20
MERGED from [de.hdodenhof:circleimageview:2.2.0] C:\Users\UNION\.android\build-cache\f60eb27fc75c70e4f59e626f19c37eb4744dd394\output\AndroidManifest.xml:9:5-20
MERGED from [com.google.firebase:firebase-crash:10.0.1] C:\Users\UNION\.android\build-cache\0cfa5d4561b3cf7d671ced739efd01bf682bc836\output\AndroidManifest.xml:22:5-23:19
MERGED from [slcbmbank:imageSDK-release:unspecified] C:\Users\UNION\.android\build-cache\f93dc1cf109378559018b540560f0ed71504261d\output\AndroidManifest.xml:16:5-20:19
MERGED from [com.google.firebase:firebase-core:10.0.1] C:\Users\UNION\.android\build-cache\54bbef8f4a2dd822e592977fdce3961b738374eb\output\AndroidManifest.xml:5:5-20
MERGED from [com.google.firebase:firebase-analytics:10.0.1] C:\Users\UNION\.android\build-cache\87a304b26f280042319e45e8e58cae5e7c232b38\output\AndroidManifest.xml:24:5-33:19
MERGED from [com.google.firebase:firebase-analytics-impl:10.0.1] C:\Users\UNION\.android\build-cache\1d61e96147f9d8ae2d5528cc3fe8d2d80259a88c\output\AndroidManifest.xml:24:5-28:19
MERGED from [com.google.firebase:firebase-iid:10.0.1] C:\Users\UNION\.android\build-cache\3ce67e214e45ff4300318dbe1b14b831b1ee879f\output\AndroidManifest.xml:28:5-50:19
MERGED from [com.google.firebase:firebase-common:10.0.1] C:\Users\UNION\.android\build-cache\85b9118ff06823f39a56e1114e26332ee505ec58\output\AndroidManifest.xml:4:5-7:19
MERGED from [com.google.android.gms:play-services-tasks:10.0.1] C:\Users\UNION\.android\build-cache\c97ec40028bea36f897bd99632b646530929fd29\output\AndroidManifest.xml:4:5-19
MERGED from [com.google.android.gms:play-services-basement:10.0.1] C:\Users\UNION\.android\build-cache\8dc9330b6dc3a0eacb5882a8ff7fca17739364fc\output\AndroidManifest.xml:19:5-21:19
MERGED from [com.android.support:support-v4:24.1.1] C:\Users\UNION\.android\build-cache\e3211f32df1ed7ce7a29504138bfc687c0244177\output\AndroidManifest.xml:25:5-20
	android:label
		ADDED from C:\Users\UNION\Documents\AndroidStudioProjects\slcbmbank\app\src\main\AndroidManifest.xml:45:9-41
	android:hardwareAccelerated
		ADDED from [slcbmbank:imageSDK-release:unspecified] C:\Users\UNION\.android\build-cache\f93dc1cf109378559018b540560f0ed71504261d\output\AndroidManifest.xml:18:9-43
	android:allowBackup
		ADDED from C:\Users\UNION\Documents\AndroidStudioProjects\slcbmbank\app\src\main\AndroidManifest.xml:43:9-35
	android:icon
		ADDED from C:\Users\UNION\Documents\AndroidStudioProjects\slcbmbank\app\src\main\AndroidManifest.xml:44:9-41
	android:largeHeap
		ADDED from [slcbmbank:imageSDK-release:unspecified] C:\Users\UNION\.android\build-cache\f93dc1cf109378559018b540560f0ed71504261d\output\AndroidManifest.xml:19:9-33
	android:theme
		ADDED from C:\Users\UNION\Documents\AndroidStudioProjects\slcbmbank\app\src\main\AndroidManifest.xml:46:9-52
	android:name
		ADDED from C:\Users\UNION\Documents\AndroidStudioProjects\slcbmbank\app\src\main\AndroidManifest.xml:42:18-53
meta-data#com.google.android.gms.version
ADDED from C:\Users\UNION\Documents\AndroidStudioProjects\slcbmbank\app\src\main\AndroidManifest.xml:52:9-54:69
MERGED from [com.google.android.gms:play-services-basement:10.0.1] C:\Users\UNION\.android\build-cache\8dc9330b6dc3a0eacb5882a8ff7fca17739364fc\output\AndroidManifest.xml:20:9-121
	android:value
		ADDED from C:\Users\UNION\Documents\AndroidStudioProjects\slcbmbank\app\src\main\AndroidManifest.xml:54:13-66
	android:name
		ADDED from C:\Users\UNION\Documents\AndroidStudioProjects\slcbmbank\app\src\main\AndroidManifest.xml:53:13-58
meta-data#com.google.android.geo.API_KEY
ADDED from C:\Users\UNION\Documents\AndroidStudioProjects\slcbmbank\app\src\main\AndroidManifest.xml:56:9-58:70
	android:value
		ADDED from C:\Users\UNION\Documents\AndroidStudioProjects\slcbmbank\app\src\main\AndroidManifest.xml:58:13-68
	android:name
		ADDED from C:\Users\UNION\Documents\AndroidStudioProjects\slcbmbank\app\src\main\AndroidManifest.xml:57:13-58
meta-data#com.google.android.gms.vision.DEPENDENCIES
ADDED from C:\Users\UNION\Documents\AndroidStudioProjects\slcbmbank\app\src\main\AndroidManifest.xml:60:9-62:38
	android:value
		ADDED from C:\Users\UNION\Documents\AndroidStudioProjects\slcbmbank\app\src\main\AndroidManifest.xml:62:13-36
	android:name
		ADDED from C:\Users\UNION\Documents\AndroidStudioProjects\slcbmbank\app\src\main\AndroidManifest.xml:61:13-70
meta-data#android.webkit.WebView.EnableSafeBrowsing
ADDED from C:\Users\UNION\Documents\AndroidStudioProjects\slcbmbank\app\src\main\AndroidManifest.xml:64:9-65:36
	android:value
		ADDED from C:\Users\UNION\Documents\AndroidStudioProjects\slcbmbank\app\src\main\AndroidManifest.xml:65:13-33
	android:name
		ADDED from C:\Users\UNION\Documents\AndroidStudioProjects\slcbmbank\app\src\main\AndroidManifest.xml:64:20-76
activity#com.unionsg.blink.SplashScreen
ADDED from C:\Users\UNION\Documents\AndroidStudioProjects\slcbmbank\app\src\main\AndroidManifest.xml:68:9-77:20
	android:label
		ADDED from C:\Users\UNION\Documents\AndroidStudioProjects\slcbmbank\app\src\main\AndroidManifest.xml:71:13-45
	android:configChanges
		ADDED from C:\Users\UNION\Documents\AndroidStudioProjects\slcbmbank\app\src\main\AndroidManifest.xml:70:13-59
	android:name
		ADDED from C:\Users\UNION\Documents\AndroidStudioProjects\slcbmbank\app\src\main\AndroidManifest.xml:69:13-41
intent-filter#android.intent.action.MAIN+android.intent.category.LAUNCHER
ADDED from C:\Users\UNION\Documents\AndroidStudioProjects\slcbmbank\app\src\main\AndroidManifest.xml:72:13-76:29
action#android.intent.action.MAIN
ADDED from C:\Users\UNION\Documents\AndroidStudioProjects\slcbmbank\app\src\main\AndroidManifest.xml:73:17-69
	android:name
		ADDED from C:\Users\UNION\Documents\AndroidStudioProjects\slcbmbank\app\src\main\AndroidManifest.xml:73:25-66
category#android.intent.category.LAUNCHER
ADDED from C:\Users\UNION\Documents\AndroidStudioProjects\slcbmbank\app\src\main\AndroidManifest.xml:75:17-77
	android:name
		ADDED from C:\Users\UNION\Documents\AndroidStudioProjects\slcbmbank\app\src\main\AndroidManifest.xml:75:27-74
activity#com.unionsg.blink.LoginActivity
ADDED from C:\Users\UNION\Documents\AndroidStudioProjects\slcbmbank\app\src\main\AndroidManifest.xml:78:9-88:20
	android:label
		ADDED from C:\Users\UNION\Documents\AndroidStudioProjects\slcbmbank\app\src\main\AndroidManifest.xml:81:13-45
	android:windowSoftInputMode
		ADDED from C:\Users\UNION\Documents\AndroidStudioProjects\slcbmbank\app\src\main\AndroidManifest.xml:82:13-54
	android:configChanges
		ADDED from C:\Users\UNION\Documents\AndroidStudioProjects\slcbmbank\app\src\main\AndroidManifest.xml:80:13-59
	android:name
		ADDED from C:\Users\UNION\Documents\AndroidStudioProjects\slcbmbank\app\src\main\AndroidManifest.xml:79:13-59
intent-filter#android.intent.action.LOGINACTIVITY+android.intent.category.DEFAULT
ADDED from C:\Users\UNION\Documents\AndroidStudioProjects\slcbmbank\app\src\main\AndroidManifest.xml:83:13-87:29
action#android.intent.action.LOGINACTIVITY
ADDED from C:\Users\UNION\Documents\AndroidStudioProjects\slcbmbank\app\src\main\AndroidManifest.xml:84:17-78
	android:name
		ADDED from C:\Users\UNION\Documents\AndroidStudioProjects\slcbmbank\app\src\main\AndroidManifest.xml:84:25-75
category#android.intent.category.DEFAULT
ADDED from C:\Users\UNION\Documents\AndroidStudioProjects\slcbmbank\app\src\main\AndroidManifest.xml:86:17-76
	android:name
		ADDED from C:\Users\UNION\Documents\AndroidStudioProjects\slcbmbank\app\src\main\AndroidManifest.xml:86:27-73
activity#com.unionsg.blink.MainMenu
ADDED from C:\Users\UNION\Documents\AndroidStudioProjects\slcbmbank\app\src\main\AndroidManifest.xml:89:9-99:20
	android:label
		ADDED from C:\Users\UNION\Documents\AndroidStudioProjects\slcbmbank\app\src\main\AndroidManifest.xml:93:13-45
	android:configChanges
		ADDED from C:\Users\UNION\Documents\AndroidStudioProjects\slcbmbank\app\src\main\AndroidManifest.xml:91:13-59
	android:icon
		ADDED from C:\Users\UNION\Documents\AndroidStudioProjects\slcbmbank\app\src\main\AndroidManifest.xml:92:13-45
	android:name
		ADDED from C:\Users\UNION\Documents\AndroidStudioProjects\slcbmbank\app\src\main\AndroidManifest.xml:90:13-54
intent-filter#android.intent.action.DEFAULT+android.intent.category.MAIN
ADDED from C:\Users\UNION\Documents\AndroidStudioProjects\slcbmbank\app\src\main\AndroidManifest.xml:94:13-98:29
action#android.intent.action.DEFAULT
ADDED from C:\Users\UNION\Documents\AndroidStudioProjects\slcbmbank\app\src\main\AndroidManifest.xml:95:17-72
	android:name
		ADDED from C:\Users\UNION\Documents\AndroidStudioProjects\slcbmbank\app\src\main\AndroidManifest.xml:95:25-69
category#android.intent.category.MAIN
ADDED from C:\Users\UNION\Documents\AndroidStudioProjects\slcbmbank\app\src\main\AndroidManifest.xml:97:17-73
	android:name
		ADDED from C:\Users\UNION\Documents\AndroidStudioProjects\slcbmbank\app\src\main\AndroidManifest.xml:97:27-70
activity#com.unionsg.blink.MyAccounts
ADDED from C:\Users\UNION\Documents\AndroidStudioProjects\slcbmbank\app\src\main\AndroidManifest.xml:100:9-109:20
	android:label
		ADDED from C:\Users\UNION\Documents\AndroidStudioProjects\slcbmbank\app\src\main\AndroidManifest.xml:103:13-44
	android:configChanges
		ADDED from C:\Users\UNION\Documents\AndroidStudioProjects\slcbmbank\app\src\main\AndroidManifest.xml:102:13-59
	android:name
		ADDED from C:\Users\UNION\Documents\AndroidStudioProjects\slcbmbank\app\src\main\AndroidManifest.xml:101:13-39
intent-filter#android.intent.action.DEFAULT+android.intent.category.MYACCOUNTS
ADDED from C:\Users\UNION\Documents\AndroidStudioProjects\slcbmbank\app\src\main\AndroidManifest.xml:104:13-108:29
category#android.intent.category.MYACCOUNTS
ADDED from C:\Users\UNION\Documents\AndroidStudioProjects\slcbmbank\app\src\main\AndroidManifest.xml:107:17-79
	android:name
		ADDED from C:\Users\UNION\Documents\AndroidStudioProjects\slcbmbank\app\src\main\AndroidManifest.xml:107:27-76
activity#com.unionsg.blink.Transfers
ADDED from C:\Users\UNION\Documents\AndroidStudioProjects\slcbmbank\app\src\main\AndroidManifest.xml:110:9-119:20
	android:label
		ADDED from C:\Users\UNION\Documents\AndroidStudioProjects\slcbmbank\app\src\main\AndroidManifest.xml:113:13-46
	android:configChanges
		ADDED from C:\Users\UNION\Documents\AndroidStudioProjects\slcbmbank\app\src\main\AndroidManifest.xml:112:13-70
	android:name
		ADDED from C:\Users\UNION\Documents\AndroidStudioProjects\slcbmbank\app\src\main\AndroidManifest.xml:111:13-38
intent-filter#android.intent.action.DEFAULT+android.intent.category.TRANSFERS
ADDED from C:\Users\UNION\Documents\AndroidStudioProjects\slcbmbank\app\src\main\AndroidManifest.xml:114:13-118:29
category#android.intent.category.TRANSFERS
ADDED from C:\Users\UNION\Documents\AndroidStudioProjects\slcbmbank\app\src\main\AndroidManifest.xml:117:17-78
	android:name
		ADDED from C:\Users\UNION\Documents\AndroidStudioProjects\slcbmbank\app\src\main\AndroidManifest.xml:117:27-75
activity#com.unionsg.blink.ViewBeneficiaries
ADDED from C:\Users\UNION\Documents\AndroidStudioProjects\slcbmbank\app\src\main\AndroidManifest.xml:120:9-129:20
	android:label
		ADDED from C:\Users\UNION\Documents\AndroidStudioProjects\slcbmbank\app\src\main\AndroidManifest.xml:123:13-55
	android:configChanges
		ADDED from C:\Users\UNION\Documents\AndroidStudioProjects\slcbmbank\app\src\main\AndroidManifest.xml:122:13-59
	android:name
		ADDED from C:\Users\UNION\Documents\AndroidStudioProjects\slcbmbank\app\src\main\AndroidManifest.xml:121:13-46
intent-filter#android.intent.action.DEFAULT+android.intent.category.VIEWBENEFICIARIES
ADDED from C:\Users\UNION\Documents\AndroidStudioProjects\slcbmbank\app\src\main\AndroidManifest.xml:124:13-128:29
category#android.intent.category.VIEWBENEFICIARIES
ADDED from C:\Users\UNION\Documents\AndroidStudioProjects\slcbmbank\app\src\main\AndroidManifest.xml:127:17-86
	android:name
		ADDED from C:\Users\UNION\Documents\AndroidStudioProjects\slcbmbank\app\src\main\AndroidManifest.xml:127:27-83
activity#com.unionsg.blink.PinSetup
ADDED from C:\Users\UNION\Documents\AndroidStudioProjects\slcbmbank\app\src\main\AndroidManifest.xml:130:9-139:20
	android:label
		ADDED from C:\Users\UNION\Documents\AndroidStudioProjects\slcbmbank\app\src\main\AndroidManifest.xml:132:13-46
	android:configChanges
		ADDED from C:\Users\UNION\Documents\AndroidStudioProjects\slcbmbank\app\src\main\AndroidManifest.xml:133:13-59
	android:name
		ADDED from C:\Users\UNION\Documents\AndroidStudioProjects\slcbmbank\app\src\main\AndroidManifest.xml:131:13-37
intent-filter#android.intent.action.DEFAULT+android.intent.category.PINSETUP
ADDED from C:\Users\UNION\Documents\AndroidStudioProjects\slcbmbank\app\src\main\AndroidManifest.xml:134:13-138:29
category#android.intent.category.PINSETUP
ADDED from C:\Users\UNION\Documents\AndroidStudioProjects\slcbmbank\app\src\main\AndroidManifest.xml:137:17-77
	android:name
		ADDED from C:\Users\UNION\Documents\AndroidStudioProjects\slcbmbank\app\src\main\AndroidManifest.xml:137:27-74
activity#com.unionsg.blink.AtmRequest
ADDED from C:\Users\UNION\Documents\AndroidStudioProjects\slcbmbank\app\src\main\AndroidManifest.xml:140:9-149:20
	android:label
		ADDED from C:\Users\UNION\Documents\AndroidStudioProjects\slcbmbank\app\src\main\AndroidManifest.xml:142:13-45
	android:configChanges
		ADDED from C:\Users\UNION\Documents\AndroidStudioProjects\slcbmbank\app\src\main\AndroidManifest.xml:143:13-59
	android:name
		ADDED from C:\Users\UNION\Documents\AndroidStudioProjects\slcbmbank\app\src\main\AndroidManifest.xml:141:13-39
intent-filter#android.intent.action.DEFAULT+android.intent.category.ATMREQUEST
ADDED from C:\Users\UNION\Documents\AndroidStudioProjects\slcbmbank\app\src\main\AndroidManifest.xml:144:13-148:29
category#android.intent.category.ATMREQUEST
ADDED from C:\Users\UNION\Documents\AndroidStudioProjects\slcbmbank\app\src\main\AndroidManifest.xml:147:17-79
	android:name
		ADDED from C:\Users\UNION\Documents\AndroidStudioProjects\slcbmbank\app\src\main\AndroidManifest.xml:147:27-76
activity#com.unionsg.blink.AtmBlock
ADDED from C:\Users\UNION\Documents\AndroidStudioProjects\slcbmbank\app\src\main\AndroidManifest.xml:150:9-159:20
	android:label
		ADDED from C:\Users\UNION\Documents\AndroidStudioProjects\slcbmbank\app\src\main\AndroidManifest.xml:152:13-46
	android:configChanges
		ADDED from C:\Users\UNION\Documents\AndroidStudioProjects\slcbmbank\app\src\main\AndroidManifest.xml:153:13-59
	android:name
		ADDED from C:\Users\UNION\Documents\AndroidStudioProjects\slcbmbank\app\src\main\AndroidManifest.xml:151:13-37
intent-filter#android.intent.action.DEFAULT+android.intent.category.ATMBLOCK
ADDED from C:\Users\UNION\Documents\AndroidStudioProjects\slcbmbank\app\src\main\AndroidManifest.xml:154:13-158:29
category#android.intent.category.ATMBLOCK
ADDED from C:\Users\UNION\Documents\AndroidStudioProjects\slcbmbank\app\src\main\AndroidManifest.xml:157:17-77
	android:name
		ADDED from C:\Users\UNION\Documents\AndroidStudioProjects\slcbmbank\app\src\main\AndroidManifest.xml:157:27-74
activity#com.unionsg.blink.ChequeDeposit
ADDED from C:\Users\UNION\Documents\AndroidStudioProjects\slcbmbank\app\src\main\AndroidManifest.xml:160:9-169:20
	android:label
		ADDED from C:\Users\UNION\Documents\AndroidStudioProjects\slcbmbank\app\src\main\AndroidManifest.xml:163:13-43
	android:configChanges
		ADDED from C:\Users\UNION\Documents\AndroidStudioProjects\slcbmbank\app\src\main\AndroidManifest.xml:162:13-59
	android:name
		ADDED from C:\Users\UNION\Documents\AndroidStudioProjects\slcbmbank\app\src\main\AndroidManifest.xml:161:13-59
intent-filter#android.intent.action.CHEQUEDEPOSIT+android.intent.category.DEFAULT
ADDED from C:\Users\UNION\Documents\AndroidStudioProjects\slcbmbank\app\src\main\AndroidManifest.xml:164:13-168:29
action#android.intent.action.CHEQUEDEPOSIT
ADDED from C:\Users\UNION\Documents\AndroidStudioProjects\slcbmbank\app\src\main\AndroidManifest.xml:165:17-78
	android:name
		ADDED from C:\Users\UNION\Documents\AndroidStudioProjects\slcbmbank\app\src\main\AndroidManifest.xml:165:25-75
activity#com.unionsg.blink.EditBeneficiary
ADDED from C:\Users\UNION\Documents\AndroidStudioProjects\slcbmbank\app\src\main\AndroidManifest.xml:170:9-179:20
	android:label
		ADDED from C:\Users\UNION\Documents\AndroidStudioProjects\slcbmbank\app\src\main\AndroidManifest.xml:173:13-53
	android:configChanges
		ADDED from C:\Users\UNION\Documents\AndroidStudioProjects\slcbmbank\app\src\main\AndroidManifest.xml:172:13-59
	android:name
		ADDED from C:\Users\UNION\Documents\AndroidStudioProjects\slcbmbank\app\src\main\AndroidManifest.xml:171:13-61
intent-filter#android.intent.action.EDITBENEFICIARY+android.intent.category.DEFAULT
ADDED from C:\Users\UNION\Documents\AndroidStudioProjects\slcbmbank\app\src\main\AndroidManifest.xml:174:13-178:29
action#android.intent.action.EDITBENEFICIARY
ADDED from C:\Users\UNION\Documents\AndroidStudioProjects\slcbmbank\app\src\main\AndroidManifest.xml:175:17-80
	android:name
		ADDED from C:\Users\UNION\Documents\AndroidStudioProjects\slcbmbank\app\src\main\AndroidManifest.xml:175:25-77
activity#com.unionsg.blink.EditExtBeneficiary
ADDED from C:\Users\UNION\Documents\AndroidStudioProjects\slcbmbank\app\src\main\AndroidManifest.xml:180:9-189:20
	android:label
		ADDED from C:\Users\UNION\Documents\AndroidStudioProjects\slcbmbank\app\src\main\AndroidManifest.xml:183:13-57
	android:configChanges
		ADDED from C:\Users\UNION\Documents\AndroidStudioProjects\slcbmbank\app\src\main\AndroidManifest.xml:182:13-59
	android:name
		ADDED from C:\Users\UNION\Documents\AndroidStudioProjects\slcbmbank\app\src\main\AndroidManifest.xml:181:13-64
intent-filter#android.intent.action.EDITEXTBENEFICIARY+android.intent.category.DEFAULT
ADDED from C:\Users\UNION\Documents\AndroidStudioProjects\slcbmbank\app\src\main\AndroidManifest.xml:184:13-188:29
action#android.intent.action.EDITEXTBENEFICIARY
ADDED from C:\Users\UNION\Documents\AndroidStudioProjects\slcbmbank\app\src\main\AndroidManifest.xml:185:17-83
	android:name
		ADDED from C:\Users\UNION\Documents\AndroidStudioProjects\slcbmbank\app\src\main\AndroidManifest.xml:185:25-80
activity#com.unionsg.blink.Ach
ADDED from C:\Users\UNION\Documents\AndroidStudioProjects\slcbmbank\app\src\main\AndroidManifest.xml:190:9-199:20
	android:label
		ADDED from C:\Users\UNION\Documents\AndroidStudioProjects\slcbmbank\app\src\main\AndroidManifest.xml:193:13-46
	android:configChanges
		ADDED from C:\Users\UNION\Documents\AndroidStudioProjects\slcbmbank\app\src\main\AndroidManifest.xml:192:13-59
	android:name
		ADDED from C:\Users\UNION\Documents\AndroidStudioProjects\slcbmbank\app\src\main\AndroidManifest.xml:191:13-49
intent-filter#android.intent.action.ACH+android.intent.category.DEFAULT
ADDED from C:\Users\UNION\Documents\AndroidStudioProjects\slcbmbank\app\src\main\AndroidManifest.xml:194:13-198:29
action#android.intent.action.ACH
ADDED from C:\Users\UNION\Documents\AndroidStudioProjects\slcbmbank\app\src\main\AndroidManifest.xml:195:17-68
	android:name
		ADDED from C:\Users\UNION\Documents\AndroidStudioProjects\slcbmbank\app\src\main\AndroidManifest.xml:195:25-65
activity#com.unionsg.blink.AcctCreation
ADDED from C:\Users\UNION\Documents\AndroidStudioProjects\slcbmbank\app\src\main\AndroidManifest.xml:200:9-209:20
	android:label
		ADDED from C:\Users\UNION\Documents\AndroidStudioProjects\slcbmbank\app\src\main\AndroidManifest.xml:203:13-50
	android:configChanges
		ADDED from C:\Users\UNION\Documents\AndroidStudioProjects\slcbmbank\app\src\main\AndroidManifest.xml:202:13-59
	android:name
		ADDED from C:\Users\UNION\Documents\AndroidStudioProjects\slcbmbank\app\src\main\AndroidManifest.xml:201:13-58
intent-filter#android.intent.action.ACCTCREATION+android.intent.category.DEFAULT
ADDED from C:\Users\UNION\Documents\AndroidStudioProjects\slcbmbank\app\src\main\AndroidManifest.xml:204:13-208:29
action#android.intent.action.ACCTCREATION
ADDED from C:\Users\UNION\Documents\AndroidStudioProjects\slcbmbank\app\src\main\AndroidManifest.xml:205:17-77
	android:name
		ADDED from C:\Users\UNION\Documents\AndroidStudioProjects\slcbmbank\app\src\main\AndroidManifest.xml:205:25-74
activity#com.unionsg.blink.Help
ADDED from C:\Users\UNION\Documents\AndroidStudioProjects\slcbmbank\app\src\main\AndroidManifest.xml:210:9-218:20
	android:configChanges
		ADDED from C:\Users\UNION\Documents\AndroidStudioProjects\slcbmbank\app\src\main\AndroidManifest.xml:212:13-59
	android:name
		ADDED from C:\Users\UNION\Documents\AndroidStudioProjects\slcbmbank\app\src\main\AndroidManifest.xml:211:13-50
intent-filter#android.intent.action.HELP+android.intent.category.DEFAULT
ADDED from C:\Users\UNION\Documents\AndroidStudioProjects\slcbmbank\app\src\main\AndroidManifest.xml:213:13-217:29
action#android.intent.action.HELP
ADDED from C:\Users\UNION\Documents\AndroidStudioProjects\slcbmbank\app\src\main\AndroidManifest.xml:214:17-69
	android:name
		ADDED from C:\Users\UNION\Documents\AndroidStudioProjects\slcbmbank\app\src\main\AndroidManifest.xml:214:25-66
activity#com.unionsg.blink.ConfirmAch
ADDED from C:\Users\UNION\Documents\AndroidStudioProjects\slcbmbank\app\src\main\AndroidManifest.xml:219:9-228:20
	android:label
		ADDED from C:\Users\UNION\Documents\AndroidStudioProjects\slcbmbank\app\src\main\AndroidManifest.xml:222:13-52
	android:configChanges
		ADDED from C:\Users\UNION\Documents\AndroidStudioProjects\slcbmbank\app\src\main\AndroidManifest.xml:221:13-59
	android:name
		ADDED from C:\Users\UNION\Documents\AndroidStudioProjects\slcbmbank\app\src\main\AndroidManifest.xml:220:13-56
intent-filter#android.intent.action.CONFIRMACH+android.intent.category.DEFAULT
ADDED from C:\Users\UNION\Documents\AndroidStudioProjects\slcbmbank\app\src\main\AndroidManifest.xml:223:13-227:29
action#android.intent.action.CONFIRMACH
ADDED from C:\Users\UNION\Documents\AndroidStudioProjects\slcbmbank\app\src\main\AndroidManifest.xml:224:17-75
	android:name
		ADDED from C:\Users\UNION\Documents\AndroidStudioProjects\slcbmbank\app\src\main\AndroidManifest.xml:224:25-72
activity#com.unionsg.blink.CreateBeneficiary
ADDED from C:\Users\UNION\Documents\AndroidStudioProjects\slcbmbank\app\src\main\AndroidManifest.xml:229:9-238:20
	android:label
		ADDED from C:\Users\UNION\Documents\AndroidStudioProjects\slcbmbank\app\src\main\AndroidManifest.xml:232:13-50
	android:configChanges
		ADDED from C:\Users\UNION\Documents\AndroidStudioProjects\slcbmbank\app\src\main\AndroidManifest.xml:231:13-59
	android:name
		ADDED from C:\Users\UNION\Documents\AndroidStudioProjects\slcbmbank\app\src\main\AndroidManifest.xml:230:13-63
intent-filter#android.intent.action.CREATEBENEFICIARY+android.intent.category.DEFAULT
ADDED from C:\Users\UNION\Documents\AndroidStudioProjects\slcbmbank\app\src\main\AndroidManifest.xml:233:13-237:29
action#android.intent.action.CREATEBENEFICIARY
ADDED from C:\Users\UNION\Documents\AndroidStudioProjects\slcbmbank\app\src\main\AndroidManifest.xml:234:17-82
	android:name
		ADDED from C:\Users\UNION\Documents\AndroidStudioProjects\slcbmbank\app\src\main\AndroidManifest.xml:234:25-79
activity#com.unionsg.blink.CreateExtBeneficiary
ADDED from C:\Users\UNION\Documents\AndroidStudioProjects\slcbmbank\app\src\main\AndroidManifest.xml:239:9-248:20
	android:label
		ADDED from C:\Users\UNION\Documents\AndroidStudioProjects\slcbmbank\app\src\main\AndroidManifest.xml:242:13-54
	android:configChanges
		ADDED from C:\Users\UNION\Documents\AndroidStudioProjects\slcbmbank\app\src\main\AndroidManifest.xml:241:13-59
	android:name
		ADDED from C:\Users\UNION\Documents\AndroidStudioProjects\slcbmbank\app\src\main\AndroidManifest.xml:240:13-66
intent-filter#android.intent.action.CREATEEXTBENEFICIARY+android.intent.category.DEFAULT
ADDED from C:\Users\UNION\Documents\AndroidStudioProjects\slcbmbank\app\src\main\AndroidManifest.xml:243:13-247:29
action#android.intent.action.CREATEEXTBENEFICIARY
ADDED from C:\Users\UNION\Documents\AndroidStudioProjects\slcbmbank\app\src\main\AndroidManifest.xml:244:17-85
	android:name
		ADDED from C:\Users\UNION\Documents\AndroidStudioProjects\slcbmbank\app\src\main\AndroidManifest.xml:244:25-82
activity#com.unionsg.blink.SaloneLink
ADDED from C:\Users\UNION\Documents\AndroidStudioProjects\slcbmbank\app\src\main\AndroidManifest.xml:249:9-258:20
	android:label
		ADDED from C:\Users\UNION\Documents\AndroidStudioProjects\slcbmbank\app\src\main\AndroidManifest.xml:252:13-47
	android:configChanges
		ADDED from C:\Users\UNION\Documents\AndroidStudioProjects\slcbmbank\app\src\main\AndroidManifest.xml:251:13-59
	android:name
		ADDED from C:\Users\UNION\Documents\AndroidStudioProjects\slcbmbank\app\src\main\AndroidManifest.xml:250:13-56
intent-filter#android.intent.action.SALONELINK+android.intent.category.DEFAULT
ADDED from C:\Users\UNION\Documents\AndroidStudioProjects\slcbmbank\app\src\main\AndroidManifest.xml:253:13-257:29
action#android.intent.action.SALONELINK
ADDED from C:\Users\UNION\Documents\AndroidStudioProjects\slcbmbank\app\src\main\AndroidManifest.xml:254:17-75
	android:name
		ADDED from C:\Users\UNION\Documents\AndroidStudioProjects\slcbmbank\app\src\main\AndroidManifest.xml:254:25-72
activity#com.unionsg.blink.BlinkPay
ADDED from C:\Users\UNION\Documents\AndroidStudioProjects\slcbmbank\app\src\main\AndroidManifest.xml:259:9-268:20
	android:label
		ADDED from C:\Users\UNION\Documents\AndroidStudioProjects\slcbmbank\app\src\main\AndroidManifest.xml:262:13-45
	android:configChanges
		ADDED from C:\Users\UNION\Documents\AndroidStudioProjects\slcbmbank\app\src\main\AndroidManifest.xml:261:13-59
	android:name
		ADDED from C:\Users\UNION\Documents\AndroidStudioProjects\slcbmbank\app\src\main\AndroidManifest.xml:260:13-54
intent-filter#android.intent.action.BLINKPAYMENT+android.intent.category.DEFAULT
ADDED from C:\Users\UNION\Documents\AndroidStudioProjects\slcbmbank\app\src\main\AndroidManifest.xml:263:13-267:29
action#android.intent.action.BLINKPAYMENT
ADDED from C:\Users\UNION\Documents\AndroidStudioProjects\slcbmbank\app\src\main\AndroidManifest.xml:264:17-77
	android:name
		ADDED from C:\Users\UNION\Documents\AndroidStudioProjects\slcbmbank\app\src\main\AndroidManifest.xml:264:25-74
activity#com.unionsg.blink.SaloneLinkExtra
ADDED from C:\Users\UNION\Documents\AndroidStudioProjects\slcbmbank\app\src\main\AndroidManifest.xml:270:9-279:20
	android:label
		ADDED from C:\Users\UNION\Documents\AndroidStudioProjects\slcbmbank\app\src\main\AndroidManifest.xml:273:13-47
	android:configChanges
		ADDED from C:\Users\UNION\Documents\AndroidStudioProjects\slcbmbank\app\src\main\AndroidManifest.xml:272:13-59
	android:name
		ADDED from C:\Users\UNION\Documents\AndroidStudioProjects\slcbmbank\app\src\main\AndroidManifest.xml:271:13-61
intent-filter#android.intent.action.SALONELINKEXTRA+android.intent.category.DEFAULT
ADDED from C:\Users\UNION\Documents\AndroidStudioProjects\slcbmbank\app\src\main\AndroidManifest.xml:274:13-278:29
action#android.intent.action.SALONELINKEXTRA
ADDED from C:\Users\UNION\Documents\AndroidStudioProjects\slcbmbank\app\src\main\AndroidManifest.xml:275:17-80
	android:name
		ADDED from C:\Users\UNION\Documents\AndroidStudioProjects\slcbmbank\app\src\main\AndroidManifest.xml:275:25-77
activity#com.unionsg.blink.CaptureImage
ADDED from C:\Users\UNION\Documents\AndroidStudioProjects\slcbmbank\app\src\main\AndroidManifest.xml:281:9-290:20
	android:screenOrientation
		ADDED from C:\Users\UNION\Documents\AndroidStudioProjects\slcbmbank\app\src\main\AndroidManifest.xml:284:13-50
	android:label
		ADDED from C:\Users\UNION\Documents\AndroidStudioProjects\slcbmbank\app\src\main\AndroidManifest.xml:283:13-45
	android:name
		ADDED from C:\Users\UNION\Documents\AndroidStudioProjects\slcbmbank\app\src\main\AndroidManifest.xml:282:13-58
intent-filter#android.intent.action.CAPTUREIMAGE+android.intent.category.DEFAULT
ADDED from C:\Users\UNION\Documents\AndroidStudioProjects\slcbmbank\app\src\main\AndroidManifest.xml:285:13-289:29
action#android.intent.action.CAPTUREIMAGE
ADDED from C:\Users\UNION\Documents\AndroidStudioProjects\slcbmbank\app\src\main\AndroidManifest.xml:286:17-77
	android:name
		ADDED from C:\Users\UNION\Documents\AndroidStudioProjects\slcbmbank\app\src\main\AndroidManifest.xml:286:25-74
activity#com.unionsg.blink.CameraActivity
ADDED from C:\Users\UNION\Documents\AndroidStudioProjects\slcbmbank\app\src\main\AndroidManifest.xml:291:9-294:53
	android:screenOrientation
		ADDED from C:\Users\UNION\Documents\AndroidStudioProjects\slcbmbank\app\src\main\AndroidManifest.xml:294:13-50
	android:label
		ADDED from C:\Users\UNION\Documents\AndroidStudioProjects\slcbmbank\app\src\main\AndroidManifest.xml:293:13-50
	android:name
		ADDED from C:\Users\UNION\Documents\AndroidStudioProjects\slcbmbank\app\src\main\AndroidManifest.xml:292:13-60
activity#com.unionsg.blink.TransEnquiry
ADDED from C:\Users\UNION\Documents\AndroidStudioProjects\slcbmbank\app\src\main\AndroidManifest.xml:295:9-304:20
	android:label
		ADDED from C:\Users\UNION\Documents\AndroidStudioProjects\slcbmbank\app\src\main\AndroidManifest.xml:298:13-46
	android:configChanges
		ADDED from C:\Users\UNION\Documents\AndroidStudioProjects\slcbmbank\app\src\main\AndroidManifest.xml:297:13-59
	android:name
		ADDED from C:\Users\UNION\Documents\AndroidStudioProjects\slcbmbank\app\src\main\AndroidManifest.xml:296:13-58
intent-filter#android.intent.action.TRANSENQUIRY+android.intent.category.DEFAULT
ADDED from C:\Users\UNION\Documents\AndroidStudioProjects\slcbmbank\app\src\main\AndroidManifest.xml:299:13-303:29
action#android.intent.action.TRANSENQUIRY
ADDED from C:\Users\UNION\Documents\AndroidStudioProjects\slcbmbank\app\src\main\AndroidManifest.xml:300:17-77
	android:name
		ADDED from C:\Users\UNION\Documents\AndroidStudioProjects\slcbmbank\app\src\main\AndroidManifest.xml:300:25-74
activity#com.unionsg.blink.TransChoice
ADDED from C:\Users\UNION\Documents\AndroidStudioProjects\slcbmbank\app\src\main\AndroidManifest.xml:305:9-314:20
	android:label
		ADDED from C:\Users\UNION\Documents\AndroidStudioProjects\slcbmbank\app\src\main\AndroidManifest.xml:308:13-45
	android:configChanges
		ADDED from C:\Users\UNION\Documents\AndroidStudioProjects\slcbmbank\app\src\main\AndroidManifest.xml:307:13-59
	android:name
		ADDED from C:\Users\UNION\Documents\AndroidStudioProjects\slcbmbank\app\src\main\AndroidManifest.xml:306:13-57
intent-filter#android.intent.action.TRANSCHOICE+android.intent.category.DEFAULT
ADDED from C:\Users\UNION\Documents\AndroidStudioProjects\slcbmbank\app\src\main\AndroidManifest.xml:309:13-313:29
action#android.intent.action.TRANSCHOICE
ADDED from C:\Users\UNION\Documents\AndroidStudioProjects\slcbmbank\app\src\main\AndroidManifest.xml:310:17-76
	android:name
		ADDED from C:\Users\UNION\Documents\AndroidStudioProjects\slcbmbank\app\src\main\AndroidManifest.xml:310:25-73
activity#com.unionsg.blink.FundsTransfer
ADDED from C:\Users\UNION\Documents\AndroidStudioProjects\slcbmbank\app\src\main\AndroidManifest.xml:315:9-324:20
	android:label
		ADDED from C:\Users\UNION\Documents\AndroidStudioProjects\slcbmbank\app\src\main\AndroidManifest.xml:318:13-46
	android:configChanges
		ADDED from C:\Users\UNION\Documents\AndroidStudioProjects\slcbmbank\app\src\main\AndroidManifest.xml:317:13-59
	android:name
		ADDED from C:\Users\UNION\Documents\AndroidStudioProjects\slcbmbank\app\src\main\AndroidManifest.xml:316:13-59
intent-filter#android.intent.action.FUNDSTRANSFER+android.intent.category.DEFAULT
ADDED from C:\Users\UNION\Documents\AndroidStudioProjects\slcbmbank\app\src\main\AndroidManifest.xml:319:13-323:29
action#android.intent.action.FUNDSTRANSFER
ADDED from C:\Users\UNION\Documents\AndroidStudioProjects\slcbmbank\app\src\main\AndroidManifest.xml:320:17-78
	android:name
		ADDED from C:\Users\UNION\Documents\AndroidStudioProjects\slcbmbank\app\src\main\AndroidManifest.xml:320:25-75
activity#com.unionsg.blink.FundsTransferFromBeneficiary
ADDED from C:\Users\UNION\Documents\AndroidStudioProjects\slcbmbank\app\src\main\AndroidManifest.xml:325:9-334:20
	android:label
		ADDED from C:\Users\UNION\Documents\AndroidStudioProjects\slcbmbank\app\src\main\AndroidManifest.xml:328:13-46
	android:configChanges
		ADDED from C:\Users\UNION\Documents\AndroidStudioProjects\slcbmbank\app\src\main\AndroidManifest.xml:327:13-59
	android:name
		ADDED from C:\Users\UNION\Documents\AndroidStudioProjects\slcbmbank\app\src\main\AndroidManifest.xml:326:13-74
intent-filter#android.intent.action.FUNDSTRANSFERFROMBENEFICIARY+android.intent.category.DEFAULT
ADDED from C:\Users\UNION\Documents\AndroidStudioProjects\slcbmbank\app\src\main\AndroidManifest.xml:329:13-333:29
action#android.intent.action.FUNDSTRANSFERFROMBENEFICIARY
ADDED from C:\Users\UNION\Documents\AndroidStudioProjects\slcbmbank\app\src\main\AndroidManifest.xml:330:17-93
	android:name
		ADDED from C:\Users\UNION\Documents\AndroidStudioProjects\slcbmbank\app\src\main\AndroidManifest.xml:330:25-90
activity#com.unionsg.blink.AchFromBeneficiary
ADDED from C:\Users\UNION\Documents\AndroidStudioProjects\slcbmbank\app\src\main\AndroidManifest.xml:335:9-344:20
	android:label
		ADDED from C:\Users\UNION\Documents\AndroidStudioProjects\slcbmbank\app\src\main\AndroidManifest.xml:338:13-46
	android:configChanges
		ADDED from C:\Users\UNION\Documents\AndroidStudioProjects\slcbmbank\app\src\main\AndroidManifest.xml:337:13-59
	android:name
		ADDED from C:\Users\UNION\Documents\AndroidStudioProjects\slcbmbank\app\src\main\AndroidManifest.xml:336:13-64
intent-filter#android.intent.action.ACHFROMBENEFICIARY+android.intent.category.DEFAULT
ADDED from C:\Users\UNION\Documents\AndroidStudioProjects\slcbmbank\app\src\main\AndroidManifest.xml:339:13-343:29
action#android.intent.action.ACHFROMBENEFICIARY
ADDED from C:\Users\UNION\Documents\AndroidStudioProjects\slcbmbank\app\src\main\AndroidManifest.xml:340:17-83
	android:name
		ADDED from C:\Users\UNION\Documents\AndroidStudioProjects\slcbmbank\app\src\main\AndroidManifest.xml:340:25-80
activity#com.unionsg.blink.CustomerComplaint
ADDED from C:\Users\UNION\Documents\AndroidStudioProjects\slcbmbank\app\src\main\AndroidManifest.xml:345:9-354:20
	android:label
		ADDED from C:\Users\UNION\Documents\AndroidStudioProjects\slcbmbank\app\src\main\AndroidManifest.xml:348:13-51
	android:configChanges
		ADDED from C:\Users\UNION\Documents\AndroidStudioProjects\slcbmbank\app\src\main\AndroidManifest.xml:347:13-59
	android:name
		ADDED from C:\Users\UNION\Documents\AndroidStudioProjects\slcbmbank\app\src\main\AndroidManifest.xml:346:13-63
intent-filter#android.intent.action.CUSTOMERCOMPLAINT+android.intent.category.DEFAULT
ADDED from C:\Users\UNION\Documents\AndroidStudioProjects\slcbmbank\app\src\main\AndroidManifest.xml:349:13-353:29
action#android.intent.action.CUSTOMERCOMPLAINT
ADDED from C:\Users\UNION\Documents\AndroidStudioProjects\slcbmbank\app\src\main\AndroidManifest.xml:350:17-82
	android:name
		ADDED from C:\Users\UNION\Documents\AndroidStudioProjects\slcbmbank\app\src\main\AndroidManifest.xml:350:25-79
activity#com.unionsg.blink.ConfirmTrans
ADDED from C:\Users\UNION\Documents\AndroidStudioProjects\slcbmbank\app\src\main\AndroidManifest.xml:355:9-364:20
	android:label
		ADDED from C:\Users\UNION\Documents\AndroidStudioProjects\slcbmbank\app\src\main\AndroidManifest.xml:358:13-52
	android:configChanges
		ADDED from C:\Users\UNION\Documents\AndroidStudioProjects\slcbmbank\app\src\main\AndroidManifest.xml:357:13-59
	android:name
		ADDED from C:\Users\UNION\Documents\AndroidStudioProjects\slcbmbank\app\src\main\AndroidManifest.xml:356:13-58
intent-filter#android.intent.action.CONFIRMTRANS+android.intent.category.DEFAULT
ADDED from C:\Users\UNION\Documents\AndroidStudioProjects\slcbmbank\app\src\main\AndroidManifest.xml:359:13-363:29
action#android.intent.action.CONFIRMTRANS
ADDED from C:\Users\UNION\Documents\AndroidStudioProjects\slcbmbank\app\src\main\AndroidManifest.xml:360:17-77
	android:name
		ADDED from C:\Users\UNION\Documents\AndroidStudioProjects\slcbmbank\app\src\main\AndroidManifest.xml:360:25-74
activity#com.unionsg.blink.TopUp
ADDED from C:\Users\UNION\Documents\AndroidStudioProjects\slcbmbank\app\src\main\AndroidManifest.xml:365:9-374:20
	android:label
		ADDED from C:\Users\UNION\Documents\AndroidStudioProjects\slcbmbank\app\src\main\AndroidManifest.xml:368:13-45
	android:configChanges
		ADDED from C:\Users\UNION\Documents\AndroidStudioProjects\slcbmbank\app\src\main\AndroidManifest.xml:367:13-59
	android:name
		ADDED from C:\Users\UNION\Documents\AndroidStudioProjects\slcbmbank\app\src\main\AndroidManifest.xml:366:13-51
intent-filter#android.intent.action.TOPUP+android.intent.category.DEFAULT
ADDED from C:\Users\UNION\Documents\AndroidStudioProjects\slcbmbank\app\src\main\AndroidManifest.xml:369:13-373:29
action#android.intent.action.TOPUP
ADDED from C:\Users\UNION\Documents\AndroidStudioProjects\slcbmbank\app\src\main\AndroidManifest.xml:370:17-70
	android:name
		ADDED from C:\Users\UNION\Documents\AndroidStudioProjects\slcbmbank\app\src\main\AndroidManifest.xml:370:25-67
activity#com.unionsg.blink.Settings
ADDED from C:\Users\UNION\Documents\AndroidStudioProjects\slcbmbank\app\src\main\AndroidManifest.xml:375:9-384:20
	android:label
		ADDED from C:\Users\UNION\Documents\AndroidStudioProjects\slcbmbank\app\src\main\AndroidManifest.xml:378:13-45
	android:configChanges
		ADDED from C:\Users\UNION\Documents\AndroidStudioProjects\slcbmbank\app\src\main\AndroidManifest.xml:377:13-59
	android:name
		ADDED from C:\Users\UNION\Documents\AndroidStudioProjects\slcbmbank\app\src\main\AndroidManifest.xml:376:13-54
intent-filter#android.intent.action.HOVERSETTINGSMENU+android.intent.category.DEFAULT
ADDED from C:\Users\UNION\Documents\AndroidStudioProjects\slcbmbank\app\src\main\AndroidManifest.xml:379:13-383:29
action#android.intent.action.HOVERSETTINGSMENU
ADDED from C:\Users\UNION\Documents\AndroidStudioProjects\slcbmbank\app\src\main\AndroidManifest.xml:380:17-82
	android:name
		ADDED from C:\Users\UNION\Documents\AndroidStudioProjects\slcbmbank\app\src\main\AndroidManifest.xml:380:25-79
activity#com.unionsg.blink.StatementReqt
ADDED from C:\Users\UNION\Documents\AndroidStudioProjects\slcbmbank\app\src\main\AndroidManifest.xml:385:9-394:20
	android:label
		ADDED from C:\Users\UNION\Documents\AndroidStudioProjects\slcbmbank\app\src\main\AndroidManifest.xml:388:13-51
	android:configChanges
		ADDED from C:\Users\UNION\Documents\AndroidStudioProjects\slcbmbank\app\src\main\AndroidManifest.xml:387:13-59
	android:name
		ADDED from C:\Users\UNION\Documents\AndroidStudioProjects\slcbmbank\app\src\main\AndroidManifest.xml:386:13-59
intent-filter#android.intent.action.STATEMENTREQT+android.intent.category.DEFAULT
ADDED from C:\Users\UNION\Documents\AndroidStudioProjects\slcbmbank\app\src\main\AndroidManifest.xml:389:13-393:29
action#android.intent.action.STATEMENTREQT
ADDED from C:\Users\UNION\Documents\AndroidStudioProjects\slcbmbank\app\src\main\AndroidManifest.xml:390:17-78
	android:name
		ADDED from C:\Users\UNION\Documents\AndroidStudioProjects\slcbmbank\app\src\main\AndroidManifest.xml:390:25-75
activity#com.unionsg.blink.ChequeBookReqt
ADDED from C:\Users\UNION\Documents\AndroidStudioProjects\slcbmbank\app\src\main\AndroidManifest.xml:395:9-404:20
	android:label
		ADDED from C:\Users\UNION\Documents\AndroidStudioProjects\slcbmbank\app\src\main\AndroidManifest.xml:398:13-47
	android:configChanges
		ADDED from C:\Users\UNION\Documents\AndroidStudioProjects\slcbmbank\app\src\main\AndroidManifest.xml:397:13-59
	android:name
		ADDED from C:\Users\UNION\Documents\AndroidStudioProjects\slcbmbank\app\src\main\AndroidManifest.xml:396:13-60
intent-filter#android.intent.action.CHEQUEBOOKREQT+android.intent.category.DEFAULT
ADDED from C:\Users\UNION\Documents\AndroidStudioProjects\slcbmbank\app\src\main\AndroidManifest.xml:399:13-403:29
action#android.intent.action.CHEQUEBOOKREQT
ADDED from C:\Users\UNION\Documents\AndroidStudioProjects\slcbmbank\app\src\main\AndroidManifest.xml:400:17-79
	android:name
		ADDED from C:\Users\UNION\Documents\AndroidStudioProjects\slcbmbank\app\src\main\AndroidManifest.xml:400:25-76
activity#com.unionsg.blink.RequestList
ADDED from C:\Users\UNION\Documents\AndroidStudioProjects\slcbmbank\app\src\main\AndroidManifest.xml:405:9-414:20
	android:label
		ADDED from C:\Users\UNION\Documents\AndroidStudioProjects\slcbmbank\app\src\main\AndroidManifest.xml:408:13-45
	android:configChanges
		ADDED from C:\Users\UNION\Documents\AndroidStudioProjects\slcbmbank\app\src\main\AndroidManifest.xml:407:13-59
	android:name
		ADDED from C:\Users\UNION\Documents\AndroidStudioProjects\slcbmbank\app\src\main\AndroidManifest.xml:406:13-57
intent-filter#android.intent.action.REQUESTLIST+android.intent.category.DEFAULT
ADDED from C:\Users\UNION\Documents\AndroidStudioProjects\slcbmbank\app\src\main\AndroidManifest.xml:409:13-413:29
action#android.intent.action.REQUESTLIST
ADDED from C:\Users\UNION\Documents\AndroidStudioProjects\slcbmbank\app\src\main\AndroidManifest.xml:410:17-76
	android:name
		ADDED from C:\Users\UNION\Documents\AndroidStudioProjects\slcbmbank\app\src\main\AndroidManifest.xml:410:25-73
activity#com.unionsg.blink.FxRatesReqt
ADDED from C:\Users\UNION\Documents\AndroidStudioProjects\slcbmbank\app\src\main\AndroidManifest.xml:415:9-424:20
	android:label
		ADDED from C:\Users\UNION\Documents\AndroidStudioProjects\slcbmbank\app\src\main\AndroidManifest.xml:418:13-45
	android:configChanges
		ADDED from C:\Users\UNION\Documents\AndroidStudioProjects\slcbmbank\app\src\main\AndroidManifest.xml:417:13-59
	android:name
		ADDED from C:\Users\UNION\Documents\AndroidStudioProjects\slcbmbank\app\src\main\AndroidManifest.xml:416:13-57
intent-filter#android.intent.action.FXRATESREQT+android.intent.category.DEFAULT
ADDED from C:\Users\UNION\Documents\AndroidStudioProjects\slcbmbank\app\src\main\AndroidManifest.xml:419:13-423:29
action#android.intent.action.FXRATESREQT
ADDED from C:\Users\UNION\Documents\AndroidStudioProjects\slcbmbank\app\src\main\AndroidManifest.xml:420:17-76
	android:name
		ADDED from C:\Users\UNION\Documents\AndroidStudioProjects\slcbmbank\app\src\main\AndroidManifest.xml:420:25-73
activity#com.unionsg.blink.PlotData
ADDED from C:\Users\UNION\Documents\AndroidStudioProjects\slcbmbank\app\src\main\AndroidManifest.xml:425:9-434:20
	android:label
		ADDED from C:\Users\UNION\Documents\AndroidStudioProjects\slcbmbank\app\src\main\AndroidManifest.xml:428:13-47
	android:configChanges
		ADDED from C:\Users\UNION\Documents\AndroidStudioProjects\slcbmbank\app\src\main\AndroidManifest.xml:427:13-59
	android:name
		ADDED from C:\Users\UNION\Documents\AndroidStudioProjects\slcbmbank\app\src\main\AndroidManifest.xml:426:13-54
intent-filter#android.intent.action.PLOTDATA+android.intent.category.DEFAULT
ADDED from C:\Users\UNION\Documents\AndroidStudioProjects\slcbmbank\app\src\main\AndroidManifest.xml:429:13-433:29
action#android.intent.action.PLOTDATA
ADDED from C:\Users\UNION\Documents\AndroidStudioProjects\slcbmbank\app\src\main\AndroidManifest.xml:430:17-73
	android:name
		ADDED from C:\Users\UNION\Documents\AndroidStudioProjects\slcbmbank\app\src\main\AndroidManifest.xml:430:25-70
activity#com.unionsg.blink.ContactUs
ADDED from C:\Users\UNION\Documents\AndroidStudioProjects\slcbmbank\app\src\main\AndroidManifest.xml:435:9-444:20
	android:label
		ADDED from C:\Users\UNION\Documents\AndroidStudioProjects\slcbmbank\app\src\main\AndroidManifest.xml:438:13-47
	android:configChanges
		ADDED from C:\Users\UNION\Documents\AndroidStudioProjects\slcbmbank\app\src\main\AndroidManifest.xml:437:13-59
	android:name
		ADDED from C:\Users\UNION\Documents\AndroidStudioProjects\slcbmbank\app\src\main\AndroidManifest.xml:436:13-55
intent-filter#android.intent.action.CONTACTUS+android.intent.category.DEFAULT
ADDED from C:\Users\UNION\Documents\AndroidStudioProjects\slcbmbank\app\src\main\AndroidManifest.xml:439:13-443:29
action#android.intent.action.CONTACTUS
ADDED from C:\Users\UNION\Documents\AndroidStudioProjects\slcbmbank\app\src\main\AndroidManifest.xml:440:17-74
	android:name
		ADDED from C:\Users\UNION\Documents\AndroidStudioProjects\slcbmbank\app\src\main\AndroidManifest.xml:440:25-71
activity#com.unionsg.blink.TermsAndConditions
ADDED from C:\Users\UNION\Documents\AndroidStudioProjects\slcbmbank\app\src\main\AndroidManifest.xml:445:9-454:20
	android:label
		ADDED from C:\Users\UNION\Documents\AndroidStudioProjects\slcbmbank\app\src\main\AndroidManifest.xml:448:13-45
	android:configChanges
		ADDED from C:\Users\UNION\Documents\AndroidStudioProjects\slcbmbank\app\src\main\AndroidManifest.xml:447:13-59
	android:name
		ADDED from C:\Users\UNION\Documents\AndroidStudioProjects\slcbmbank\app\src\main\AndroidManifest.xml:446:13-64
intent-filter#android.intent.action.TERMSANDCONDITIONS+android.intent.category.DEFAULT
ADDED from C:\Users\UNION\Documents\AndroidStudioProjects\slcbmbank\app\src\main\AndroidManifest.xml:449:13-453:29
action#android.intent.action.TERMSANDCONDITIONS
ADDED from C:\Users\UNION\Documents\AndroidStudioProjects\slcbmbank\app\src\main\AndroidManifest.xml:450:17-83
	android:name
		ADDED from C:\Users\UNION\Documents\AndroidStudioProjects\slcbmbank\app\src\main\AndroidManifest.xml:450:25-80
activity#com.unionsg.blink.QRScan
ADDED from C:\Users\UNION\Documents\AndroidStudioProjects\slcbmbank\app\src\main\AndroidManifest.xml:455:9-464:20
	android:label
		ADDED from C:\Users\UNION\Documents\AndroidStudioProjects\slcbmbank\app\src\main\AndroidManifest.xml:458:13-45
	android:configChanges
		ADDED from C:\Users\UNION\Documents\AndroidStudioProjects\slcbmbank\app\src\main\AndroidManifest.xml:457:13-59
	android:name
		ADDED from C:\Users\UNION\Documents\AndroidStudioProjects\slcbmbank\app\src\main\AndroidManifest.xml:456:13-52
intent-filter#android.intent.action.QRSCAN+android.intent.category.DEFAULT
ADDED from C:\Users\UNION\Documents\AndroidStudioProjects\slcbmbank\app\src\main\AndroidManifest.xml:459:13-463:29
action#android.intent.action.QRSCAN
ADDED from C:\Users\UNION\Documents\AndroidStudioProjects\slcbmbank\app\src\main\AndroidManifest.xml:460:17-71
	android:name
		ADDED from C:\Users\UNION\Documents\AndroidStudioProjects\slcbmbank\app\src\main\AndroidManifest.xml:460:25-68
activity#com.unionsg.blink.TransferBetweenAccounts
ADDED from C:\Users\UNION\Documents\AndroidStudioProjects\slcbmbank\app\src\main\AndroidManifest.xml:465:9-474:20
	android:label
		ADDED from C:\Users\UNION\Documents\AndroidStudioProjects\slcbmbank\app\src\main\AndroidManifest.xml:468:13-59
	android:configChanges
		ADDED from C:\Users\UNION\Documents\AndroidStudioProjects\slcbmbank\app\src\main\AndroidManifest.xml:467:13-59
	android:name
		ADDED from C:\Users\UNION\Documents\AndroidStudioProjects\slcbmbank\app\src\main\AndroidManifest.xml:466:13-69
intent-filter#android.intent.action.TRANSFERBETWEENACCOUNTS+android.intent.category.DEFAULT
ADDED from C:\Users\UNION\Documents\AndroidStudioProjects\slcbmbank\app\src\main\AndroidManifest.xml:469:13-473:29
action#android.intent.action.TRANSFERBETWEENACCOUNTS
ADDED from C:\Users\UNION\Documents\AndroidStudioProjects\slcbmbank\app\src\main\AndroidManifest.xml:470:17-88
	android:name
		ADDED from C:\Users\UNION\Documents\AndroidStudioProjects\slcbmbank\app\src\main\AndroidManifest.xml:470:25-85
activity#com.unionsg.blink.AboutUs
ADDED from C:\Users\UNION\Documents\AndroidStudioProjects\slcbmbank\app\src\main\AndroidManifest.xml:475:9-483:20
	android:configChanges
		ADDED from C:\Users\UNION\Documents\AndroidStudioProjects\slcbmbank\app\src\main\AndroidManifest.xml:477:13-59
	android:name
		ADDED from C:\Users\UNION\Documents\AndroidStudioProjects\slcbmbank\app\src\main\AndroidManifest.xml:476:13-53
intent-filter#android.intent.action.ABOUTUS+android.intent.category.DEFAULT
ADDED from C:\Users\UNION\Documents\AndroidStudioProjects\slcbmbank\app\src\main\AndroidManifest.xml:478:13-482:29
action#android.intent.action.ABOUTUS
ADDED from C:\Users\UNION\Documents\AndroidStudioProjects\slcbmbank\app\src\main\AndroidManifest.xml:479:17-72
	android:name
		ADDED from C:\Users\UNION\Documents\AndroidStudioProjects\slcbmbank\app\src\main\AndroidManifest.xml:479:25-69
activity#com.unionsg.blink.LoginChangePassword
ADDED from C:\Users\UNION\Documents\AndroidStudioProjects\slcbmbank\app\src\main\AndroidManifest.xml:484:9-492:20
	android:configChanges
		ADDED from C:\Users\UNION\Documents\AndroidStudioProjects\slcbmbank\app\src\main\AndroidManifest.xml:486:13-59
	android:name
		ADDED from C:\Users\UNION\Documents\AndroidStudioProjects\slcbmbank\app\src\main\AndroidManifest.xml:485:13-65
intent-filter#android.intent.action.LOGINCHANGEPASSWORD+android.intent.category.DEFAULT
ADDED from C:\Users\UNION\Documents\AndroidStudioProjects\slcbmbank\app\src\main\AndroidManifest.xml:487:13-491:29
action#android.intent.action.LOGINCHANGEPASSWORD
ADDED from C:\Users\UNION\Documents\AndroidStudioProjects\slcbmbank\app\src\main\AndroidManifest.xml:488:17-84
	android:name
		ADDED from C:\Users\UNION\Documents\AndroidStudioProjects\slcbmbank\app\src\main\AndroidManifest.xml:488:25-81
activity#com.unionsg.blink.ForgotPin
ADDED from C:\Users\UNION\Documents\AndroidStudioProjects\slcbmbank\app\src\main\AndroidManifest.xml:493:9-501:20
	android:configChanges
		ADDED from C:\Users\UNION\Documents\AndroidStudioProjects\slcbmbank\app\src\main\AndroidManifest.xml:495:13-59
	android:name
		ADDED from C:\Users\UNION\Documents\AndroidStudioProjects\slcbmbank\app\src\main\AndroidManifest.xml:494:13-55
intent-filter#android.intent.action.FORGOTPIN+android.intent.category.DEFAULT
ADDED from C:\Users\UNION\Documents\AndroidStudioProjects\slcbmbank\app\src\main\AndroidManifest.xml:496:13-500:29
action#android.intent.action.FORGOTPIN
ADDED from C:\Users\UNION\Documents\AndroidStudioProjects\slcbmbank\app\src\main\AndroidManifest.xml:497:17-74
	android:name
		ADDED from C:\Users\UNION\Documents\AndroidStudioProjects\slcbmbank\app\src\main\AndroidManifest.xml:497:25-71
activity#com.unionsg.blink.ForgotPassword
ADDED from C:\Users\UNION\Documents\AndroidStudioProjects\slcbmbank\app\src\main\AndroidManifest.xml:502:9-510:20
	android:configChanges
		ADDED from C:\Users\UNION\Documents\AndroidStudioProjects\slcbmbank\app\src\main\AndroidManifest.xml:504:13-59
	android:name
		ADDED from C:\Users\UNION\Documents\AndroidStudioProjects\slcbmbank\app\src\main\AndroidManifest.xml:503:13-60
intent-filter#android.intent.action.FORGOTPASSWORD+android.intent.category.DEFAULT
ADDED from C:\Users\UNION\Documents\AndroidStudioProjects\slcbmbank\app\src\main\AndroidManifest.xml:505:13-509:29
action#android.intent.action.FORGOTPASSWORD
ADDED from C:\Users\UNION\Documents\AndroidStudioProjects\slcbmbank\app\src\main\AndroidManifest.xml:506:17-79
	android:name
		ADDED from C:\Users\UNION\Documents\AndroidStudioProjects\slcbmbank\app\src\main\AndroidManifest.xml:506:25-76
activity#com.unionsg.blink.StopCheque
ADDED from C:\Users\UNION\Documents\AndroidStudioProjects\slcbmbank\app\src\main\AndroidManifest.xml:511:9-520:20
	android:label
		ADDED from C:\Users\UNION\Documents\AndroidStudioProjects\slcbmbank\app\src\main\AndroidManifest.xml:514:13-48
	android:configChanges
		ADDED from C:\Users\UNION\Documents\AndroidStudioProjects\slcbmbank\app\src\main\AndroidManifest.xml:513:13-59
	android:name
		ADDED from C:\Users\UNION\Documents\AndroidStudioProjects\slcbmbank\app\src\main\AndroidManifest.xml:512:13-56
intent-filter#android.intent.action.STOPCHEQUE+android.intent.category.DEFAULT
ADDED from C:\Users\UNION\Documents\AndroidStudioProjects\slcbmbank\app\src\main\AndroidManifest.xml:515:13-519:29
action#android.intent.action.STOPCHEQUE
ADDED from C:\Users\UNION\Documents\AndroidStudioProjects\slcbmbank\app\src\main\AndroidManifest.xml:516:17-75
	android:name
		ADDED from C:\Users\UNION\Documents\AndroidStudioProjects\slcbmbank\app\src\main\AndroidManifest.xml:516:25-72
activity#com.unionsg.blink.SendQRCash
ADDED from C:\Users\UNION\Documents\AndroidStudioProjects\slcbmbank\app\src\main\AndroidManifest.xml:531:9-540:20
	android:label
		ADDED from C:\Users\UNION\Documents\AndroidStudioProjects\slcbmbank\app\src\main\AndroidManifest.xml:534:13-47
	android:configChanges
		ADDED from C:\Users\UNION\Documents\AndroidStudioProjects\slcbmbank\app\src\main\AndroidManifest.xml:533:13-59
	android:name
		ADDED from C:\Users\UNION\Documents\AndroidStudioProjects\slcbmbank\app\src\main\AndroidManifest.xml:532:13-56
intent-filter#android.intent.action.SENDQRCASH+android.intent.category.DEFAULT
ADDED from C:\Users\UNION\Documents\AndroidStudioProjects\slcbmbank\app\src\main\AndroidManifest.xml:535:13-539:29
action#android.intent.action.SENDQRCASH
ADDED from C:\Users\UNION\Documents\AndroidStudioProjects\slcbmbank\app\src\main\AndroidManifest.xml:536:17-75
	android:name
		ADDED from C:\Users\UNION\Documents\AndroidStudioProjects\slcbmbank\app\src\main\AndroidManifest.xml:536:25-72
activity#com.unionsg.blink.QRPayments
ADDED from C:\Users\UNION\Documents\AndroidStudioProjects\slcbmbank\app\src\main\AndroidManifest.xml:541:9-550:20
	android:label
		ADDED from C:\Users\UNION\Documents\AndroidStudioProjects\slcbmbank\app\src\main\AndroidManifest.xml:544:13-47
	android:configChanges
		ADDED from C:\Users\UNION\Documents\AndroidStudioProjects\slcbmbank\app\src\main\AndroidManifest.xml:543:13-59
	android:name
		ADDED from C:\Users\UNION\Documents\AndroidStudioProjects\slcbmbank\app\src\main\AndroidManifest.xml:542:13-56
intent-filter#android.intent.action.QRPAYMENTS+android.intent.category.DEFAULT
ADDED from C:\Users\UNION\Documents\AndroidStudioProjects\slcbmbank\app\src\main\AndroidManifest.xml:545:13-549:29
action#android.intent.action.QRPAYMENTS
ADDED from C:\Users\UNION\Documents\AndroidStudioProjects\slcbmbank\app\src\main\AndroidManifest.xml:546:17-75
	android:name
		ADDED from C:\Users\UNION\Documents\AndroidStudioProjects\slcbmbank\app\src\main\AndroidManifest.xml:546:25-72
activity#com.unionsg.blink.ChangePassword
ADDED from C:\Users\UNION\Documents\AndroidStudioProjects\slcbmbank\app\src\main\AndroidManifest.xml:551:9-560:20
	android:label
		ADDED from C:\Users\UNION\Documents\AndroidStudioProjects\slcbmbank\app\src\main\AndroidManifest.xml:554:13-48
	android:configChanges
		ADDED from C:\Users\UNION\Documents\AndroidStudioProjects\slcbmbank\app\src\main\AndroidManifest.xml:553:13-59
	android:name
		ADDED from C:\Users\UNION\Documents\AndroidStudioProjects\slcbmbank\app\src\main\AndroidManifest.xml:552:13-60
intent-filter#android.intent.action.CHANGEPASSWORD+android.intent.category.DEFAULT
ADDED from C:\Users\UNION\Documents\AndroidStudioProjects\slcbmbank\app\src\main\AndroidManifest.xml:555:13-559:29
action#android.intent.action.CHANGEPASSWORD
ADDED from C:\Users\UNION\Documents\AndroidStudioProjects\slcbmbank\app\src\main\AndroidManifest.xml:556:17-79
	android:name
		ADDED from C:\Users\UNION\Documents\AndroidStudioProjects\slcbmbank\app\src\main\AndroidManifest.xml:556:25-76
activity#com.unionsg.blink.ChangePin
ADDED from C:\Users\UNION\Documents\AndroidStudioProjects\slcbmbank\app\src\main\AndroidManifest.xml:561:9-570:20
	android:label
		ADDED from C:\Users\UNION\Documents\AndroidStudioProjects\slcbmbank\app\src\main\AndroidManifest.xml:564:13-47
	android:configChanges
		ADDED from C:\Users\UNION\Documents\AndroidStudioProjects\slcbmbank\app\src\main\AndroidManifest.xml:563:13-59
	android:name
		ADDED from C:\Users\UNION\Documents\AndroidStudioProjects\slcbmbank\app\src\main\AndroidManifest.xml:562:13-55
intent-filter#android.intent.action.CHANGEPIN+android.intent.category.DEFAULT
ADDED from C:\Users\UNION\Documents\AndroidStudioProjects\slcbmbank\app\src\main\AndroidManifest.xml:565:13-569:29
action#android.intent.action.CHANGEPIN
ADDED from C:\Users\UNION\Documents\AndroidStudioProjects\slcbmbank\app\src\main\AndroidManifest.xml:566:17-74
	android:name
		ADDED from C:\Users\UNION\Documents\AndroidStudioProjects\slcbmbank\app\src\main\AndroidManifest.xml:566:25-71
activity#com.unionsg.blink.LiveChat
ADDED from C:\Users\UNION\Documents\AndroidStudioProjects\slcbmbank\app\src\main\AndroidManifest.xml:571:9-580:20
	android:label
		ADDED from C:\Users\UNION\Documents\AndroidStudioProjects\slcbmbank\app\src\main\AndroidManifest.xml:574:13-46
	android:configChanges
		ADDED from C:\Users\UNION\Documents\AndroidStudioProjects\slcbmbank\app\src\main\AndroidManifest.xml:573:13-59
	android:name
		ADDED from C:\Users\UNION\Documents\AndroidStudioProjects\slcbmbank\app\src\main\AndroidManifest.xml:572:13-54
intent-filter#android.intent.action.LIVECHAT+android.intent.category.DEFAULT
ADDED from C:\Users\UNION\Documents\AndroidStudioProjects\slcbmbank\app\src\main\AndroidManifest.xml:575:13-579:29
action#android.intent.action.LIVECHAT
ADDED from C:\Users\UNION\Documents\AndroidStudioProjects\slcbmbank\app\src\main\AndroidManifest.xml:576:17-73
	android:name
		ADDED from C:\Users\UNION\Documents\AndroidStudioProjects\slcbmbank\app\src\main\AndroidManifest.xml:576:25-70
activity#com.unionsg.blink.Loans
ADDED from C:\Users\UNION\Documents\AndroidStudioProjects\slcbmbank\app\src\main\AndroidManifest.xml:581:9-590:20
	android:label
		ADDED from C:\Users\UNION\Documents\AndroidStudioProjects\slcbmbank\app\src\main\AndroidManifest.xml:584:13-42
	android:configChanges
		ADDED from C:\Users\UNION\Documents\AndroidStudioProjects\slcbmbank\app\src\main\AndroidManifest.xml:583:13-59
	android:name
		ADDED from C:\Users\UNION\Documents\AndroidStudioProjects\slcbmbank\app\src\main\AndroidManifest.xml:582:13-51
intent-filter#android.intent.action.LOANS+android.intent.category.DEFAULT
ADDED from C:\Users\UNION\Documents\AndroidStudioProjects\slcbmbank\app\src\main\AndroidManifest.xml:585:13-589:29
action#android.intent.action.LOANS
ADDED from C:\Users\UNION\Documents\AndroidStudioProjects\slcbmbank\app\src\main\AndroidManifest.xml:586:17-70
	android:name
		ADDED from C:\Users\UNION\Documents\AndroidStudioProjects\slcbmbank\app\src\main\AndroidManifest.xml:586:25-67
activity#com.unionsg.blink.LoanSchedule
ADDED from C:\Users\UNION\Documents\AndroidStudioProjects\slcbmbank\app\src\main\AndroidManifest.xml:591:9-600:20
	android:label
		ADDED from C:\Users\UNION\Documents\AndroidStudioProjects\slcbmbank\app\src\main\AndroidManifest.xml:594:13-50
	android:configChanges
		ADDED from C:\Users\UNION\Documents\AndroidStudioProjects\slcbmbank\app\src\main\AndroidManifest.xml:593:13-59
	android:name
		ADDED from C:\Users\UNION\Documents\AndroidStudioProjects\slcbmbank\app\src\main\AndroidManifest.xml:592:13-58
intent-filter#android.intent.action.LOANSCHEDULE+android.intent.category.DEFAULT
ADDED from C:\Users\UNION\Documents\AndroidStudioProjects\slcbmbank\app\src\main\AndroidManifest.xml:595:13-599:29
action#android.intent.action.LOANSCHEDULE
ADDED from C:\Users\UNION\Documents\AndroidStudioProjects\slcbmbank\app\src\main\AndroidManifest.xml:596:17-77
	android:name
		ADDED from C:\Users\UNION\Documents\AndroidStudioProjects\slcbmbank\app\src\main\AndroidManifest.xml:596:25-74
activity#cropdemo.MainActivity
ADDED from C:\Users\UNION\Documents\AndroidStudioProjects\slcbmbank\app\src\main\AndroidManifest.xml:601:9-610:20
	android:label
		ADDED from C:\Users\UNION\Documents\AndroidStudioProjects\slcbmbank\app\src\main\AndroidManifest.xml:604:13-50
	android:configChanges
		ADDED from C:\Users\UNION\Documents\AndroidStudioProjects\slcbmbank\app\src\main\AndroidManifest.xml:603:13-59
	android:name
		ADDED from C:\Users\UNION\Documents\AndroidStudioProjects\slcbmbank\app\src\main\AndroidManifest.xml:602:13-49
intent-filter#android.intent.action.MAINACTIVITY+android.intent.category.DEFAULT
ADDED from C:\Users\UNION\Documents\AndroidStudioProjects\slcbmbank\app\src\main\AndroidManifest.xml:605:13-609:29
action#android.intent.action.MAINACTIVITY
ADDED from C:\Users\UNION\Documents\AndroidStudioProjects\slcbmbank\app\src\main\AndroidManifest.xml:606:17-77
	android:name
		ADDED from C:\Users\UNION\Documents\AndroidStudioProjects\slcbmbank\app\src\main\AndroidManifest.xml:606:25-74
activity#cropdemo.camera.CameraActivity
ADDED from C:\Users\UNION\Documents\AndroidStudioProjects\slcbmbank\app\src\main\AndroidManifest.xml:611:9-620:20
	android:label
		ADDED from C:\Users\UNION\Documents\AndroidStudioProjects\slcbmbank\app\src\main\AndroidManifest.xml:614:13-50
	android:configChanges
		ADDED from C:\Users\UNION\Documents\AndroidStudioProjects\slcbmbank\app\src\main\AndroidManifest.xml:613:13-59
	android:name
		ADDED from C:\Users\UNION\Documents\AndroidStudioProjects\slcbmbank\app\src\main\AndroidManifest.xml:612:13-58
intent-filter#android.intent.action.CAMERAACTIVITY+android.intent.category.DEFAULT
ADDED from C:\Users\UNION\Documents\AndroidStudioProjects\slcbmbank\app\src\main\AndroidManifest.xml:615:13-619:29
action#android.intent.action.CAMERAACTIVITY
ADDED from C:\Users\UNION\Documents\AndroidStudioProjects\slcbmbank\app\src\main\AndroidManifest.xml:616:17-79
	android:name
		ADDED from C:\Users\UNION\Documents\AndroidStudioProjects\slcbmbank\app\src\main\AndroidManifest.xml:616:25-76
activity#com.google.android.gms.common.api.GoogleApiActivity
ADDED from [com.google.android.gms:play-services-base:10.0.1] C:\Users\UNION\.android\build-cache\91a1c675c66753ecd0f55d7ec55a007cf78f28c8\output\AndroidManifest.xml:19:9-172
	android:exported
		ADDED from [com.google.android.gms:play-services-base:10.0.1] C:\Users\UNION\.android\build-cache\91a1c675c66753ecd0f55d7ec55a007cf78f28c8\output\AndroidManifest.xml:19:146-170
	android:theme
		ADDED from [com.google.android.gms:play-services-base:10.0.1] C:\Users\UNION\.android\build-cache\91a1c675c66753ecd0f55d7ec55a007cf78f28c8\output\AndroidManifest.xml:19:86-145
	android:name
		ADDED from [com.google.android.gms:play-services-base:10.0.1] C:\Users\UNION\.android\build-cache\91a1c675c66753ecd0f55d7ec55a007cf78f28c8\output\AndroidManifest.xml:19:19-85
uses-permission#android.permission.WAKE_LOCK
ADDED from [com.google.firebase:firebase-analytics:10.0.1] C:\Users\UNION\.android\build-cache\87a304b26f280042319e45e8e58cae5e7c232b38\output\AndroidManifest.xml:22:5-67
MERGED from [com.google.firebase:firebase-analytics-impl:10.0.1] C:\Users\UNION\.android\build-cache\1d61e96147f9d8ae2d5528cc3fe8d2d80259a88c\output\AndroidManifest.xml:22:5-67
MERGED from [com.google.firebase:firebase-iid:10.0.1] C:\Users\UNION\.android\build-cache\3ce67e214e45ff4300318dbe1b14b831b1ee879f\output\AndroidManifest.xml:21:5-67
	android:name
		ADDED from [com.google.firebase:firebase-analytics:10.0.1] C:\Users\UNION\.android\build-cache\87a304b26f280042319e45e8e58cae5e7c232b38\output\AndroidManifest.xml:22:22-65
receiver#com.google.android.gms.measurement.AppMeasurementReceiver
ADDED from [com.google.firebase:firebase-analytics:10.0.1] C:\Users\UNION\.android\build-cache\87a304b26f280042319e45e8e58cae5e7c232b38\output\AndroidManifest.xml:25:7-26:18
MERGED from [com.google.firebase:firebase-analytics-impl:10.0.1] C:\Users\UNION\.android\build-cache\1d61e96147f9d8ae2d5528cc3fe8d2d80259a88c\output\AndroidManifest.xml:25:7-26:18
	android:enabled
		ADDED from [com.google.firebase:firebase-analytics:10.0.1] C:\Users\UNION\.android\build-cache\87a304b26f280042319e45e8e58cae5e7c232b38\output\AndroidManifest.xml:25:90-112
	android:exported
		ADDED from [com.google.firebase:firebase-analytics:10.0.1] C:\Users\UNION\.android\build-cache\87a304b26f280042319e45e8e58cae5e7c232b38\output\AndroidManifest.xml:25:113-137
	android:name
		ADDED from [com.google.firebase:firebase-analytics:10.0.1] C:\Users\UNION\.android\build-cache\87a304b26f280042319e45e8e58cae5e7c232b38\output\AndroidManifest.xml:25:17-89
receiver#com.google.android.gms.measurement.AppMeasurementInstallReferrerReceiver
ADDED from [com.google.firebase:firebase-analytics:10.0.1] C:\Users\UNION\.android\build-cache\87a304b26f280042319e45e8e58cae5e7c232b38\output\AndroidManifest.xml:27:7-31:18
	android:enabled
		ADDED from [com.google.firebase:firebase-analytics:10.0.1] C:\Users\UNION\.android\build-cache\87a304b26f280042319e45e8e58cae5e7c232b38\output\AndroidManifest.xml:27:162-184
	android:permission
		ADDED from [com.google.firebase:firebase-analytics:10.0.1] C:\Users\UNION\.android\build-cache\87a304b26f280042319e45e8e58cae5e7c232b38\output\AndroidManifest.xml:27:105-161
	android:name
		ADDED from [com.google.firebase:firebase-analytics:10.0.1] C:\Users\UNION\.android\build-cache\87a304b26f280042319e45e8e58cae5e7c232b38\output\AndroidManifest.xml:27:17-104
intent-filter#com.android.vending.INSTALL_REFERRER
ADDED from [com.google.firebase:firebase-analytics:10.0.1] C:\Users\UNION\.android\build-cache\87a304b26f280042319e45e8e58cae5e7c232b38\output\AndroidManifest.xml:28:11-30:27
action#com.android.vending.INSTALL_REFERRER
ADDED from [com.google.firebase:firebase-analytics:10.0.1] C:\Users\UNION\.android\build-cache\87a304b26f280042319e45e8e58cae5e7c232b38\output\AndroidManifest.xml:29:15-76
	android:name
		ADDED from [com.google.firebase:firebase-analytics:10.0.1] C:\Users\UNION\.android\build-cache\87a304b26f280042319e45e8e58cae5e7c232b38\output\AndroidManifest.xml:29:23-74
service#com.google.android.gms.measurement.AppMeasurementService
ADDED from [com.google.firebase:firebase-analytics:10.0.1] C:\Users\UNION\.android\build-cache\87a304b26f280042319e45e8e58cae5e7c232b38\output\AndroidManifest.xml:32:7-137
MERGED from [com.google.firebase:firebase-analytics-impl:10.0.1] C:\Users\UNION\.android\build-cache\1d61e96147f9d8ae2d5528cc3fe8d2d80259a88c\output\AndroidManifest.xml:27:7-137
	android:enabled
		ADDED from [com.google.firebase:firebase-analytics:10.0.1] C:\Users\UNION\.android\build-cache\87a304b26f280042319e45e8e58cae5e7c232b38\output\AndroidManifest.xml:32:88-110
	android:exported
		ADDED from [com.google.firebase:firebase-analytics:10.0.1] C:\Users\UNION\.android\build-cache\87a304b26f280042319e45e8e58cae5e7c232b38\output\AndroidManifest.xml:32:111-135
	android:name
		ADDED from [com.google.firebase:firebase-analytics:10.0.1] C:\Users\UNION\.android\build-cache\87a304b26f280042319e45e8e58cae5e7c232b38\output\AndroidManifest.xml:32:16-87
uses-permission#com.google.android.c2dm.permission.RECEIVE
ADDED from [com.google.firebase:firebase-iid:10.0.1] C:\Users\UNION\.android\build-cache\3ce67e214e45ff4300318dbe1b14b831b1ee879f\output\AndroidManifest.xml:22:5-81
	android:name
		ADDED from [com.google.firebase:firebase-iid:10.0.1] C:\Users\UNION\.android\build-cache\3ce67e214e45ff4300318dbe1b14b831b1ee879f\output\AndroidManifest.xml:22:22-79
permission#${applicationId}.permission.C2D_MESSAGE
ADDED from [com.google.firebase:firebase-iid:10.0.1] C:\Users\UNION\.android\build-cache\3ce67e214e45ff4300318dbe1b14b831b1ee879f\output\AndroidManifest.xml:24:5-109
	android:protectionLevel
		ADDED from [com.google.firebase:firebase-iid:10.0.1] C:\Users\UNION\.android\build-cache\3ce67e214e45ff4300318dbe1b14b831b1ee879f\output\AndroidManifest.xml:24:72-107
	android:name
		ADDED from [com.google.firebase:firebase-iid:10.0.1] C:\Users\UNION\.android\build-cache\3ce67e214e45ff4300318dbe1b14b831b1ee879f\output\AndroidManifest.xml:24:17-71
uses-permission#${applicationId}.permission.C2D_MESSAGE
ADDED from [com.google.firebase:firebase-iid:10.0.1] C:\Users\UNION\.android\build-cache\3ce67e214e45ff4300318dbe1b14b831b1ee879f\output\AndroidManifest.xml:26:5-78
	android:name
		ADDED from [com.google.firebase:firebase-iid:10.0.1] C:\Users\UNION\.android\build-cache\3ce67e214e45ff4300318dbe1b14b831b1ee879f\output\AndroidManifest.xml:26:22-76
receiver#com.google.firebase.iid.FirebaseInstanceIdReceiver
ADDED from [com.google.firebase:firebase-iid:10.0.1] C:\Users\UNION\.android\build-cache\3ce67e214e45ff4300318dbe1b14b831b1ee879f\output\AndroidManifest.xml:30:9-36:20
	android:exported
		ADDED from [com.google.firebase:firebase-iid:10.0.1] C:\Users\UNION\.android\build-cache\3ce67e214e45ff4300318dbe1b14b831b1ee879f\output\AndroidManifest.xml:30:85-108
	android:permission
		ADDED from [com.google.firebase:firebase-iid:10.0.1] C:\Users\UNION\.android\build-cache\3ce67e214e45ff4300318dbe1b14b831b1ee879f\output\AndroidManifest.xml:30:109-169
	android:name
		ADDED from [com.google.firebase:firebase-iid:10.0.1] C:\Users\UNION\.android\build-cache\3ce67e214e45ff4300318dbe1b14b831b1ee879f\output\AndroidManifest.xml:30:19-84
intent-filter#${applicationId}+com.google.android.c2dm.intent.RECEIVE+com.google.android.c2dm.intent.REGISTRATION
ADDED from [com.google.firebase:firebase-iid:10.0.1] C:\Users\UNION\.android\build-cache\3ce67e214e45ff4300318dbe1b14b831b1ee879f\output\AndroidManifest.xml:31:13-35:29
action#com.google.android.c2dm.intent.RECEIVE
ADDED from [com.google.firebase:firebase-iid:10.0.1] C:\Users\UNION\.android\build-cache\3ce67e214e45ff4300318dbe1b14b831b1ee879f\output\AndroidManifest.xml:32:17-80
	android:name
		ADDED from [com.google.firebase:firebase-iid:10.0.1] C:\Users\UNION\.android\build-cache\3ce67e214e45ff4300318dbe1b14b831b1ee879f\output\AndroidManifest.xml:32:25-78
action#com.google.android.c2dm.intent.REGISTRATION
ADDED from [com.google.firebase:firebase-iid:10.0.1] C:\Users\UNION\.android\build-cache\3ce67e214e45ff4300318dbe1b14b831b1ee879f\output\AndroidManifest.xml:33:17-85
	android:name
		ADDED from [com.google.firebase:firebase-iid:10.0.1] C:\Users\UNION\.android\build-cache\3ce67e214e45ff4300318dbe1b14b831b1ee879f\output\AndroidManifest.xml:33:25-83
category#${applicationId}
ADDED from [com.google.firebase:firebase-iid:10.0.1] C:\Users\UNION\.android\build-cache\3ce67e214e45ff4300318dbe1b14b831b1ee879f\output\AndroidManifest.xml:34:17-60
	android:name
		ADDED from [com.google.firebase:firebase-iid:10.0.1] C:\Users\UNION\.android\build-cache\3ce67e214e45ff4300318dbe1b14b831b1ee879f\output\AndroidManifest.xml:34:27-58
receiver#com.google.firebase.iid.FirebaseInstanceIdInternalReceiver
ADDED from [com.google.firebase:firebase-iid:10.0.1] C:\Users\UNION\.android\build-cache\3ce67e214e45ff4300318dbe1b14b831b1ee879f\output\AndroidManifest.xml:40:9-119
	android:exported
		ADDED from [com.google.firebase:firebase-iid:10.0.1] C:\Users\UNION\.android\build-cache\3ce67e214e45ff4300318dbe1b14b831b1ee879f\output\AndroidManifest.xml:40:93-117
	android:name
		ADDED from [com.google.firebase:firebase-iid:10.0.1] C:\Users\UNION\.android\build-cache\3ce67e214e45ff4300318dbe1b14b831b1ee879f\output\AndroidManifest.xml:40:19-92
service#com.google.firebase.iid.FirebaseInstanceIdService
ADDED from [com.google.firebase:firebase-iid:10.0.1] C:\Users\UNION\.android\build-cache\3ce67e214e45ff4300318dbe1b14b831b1ee879f\output\AndroidManifest.xml:44:9-48:19
	android:exported
		ADDED from [com.google.firebase:firebase-iid:10.0.1] C:\Users\UNION\.android\build-cache\3ce67e214e45ff4300318dbe1b14b831b1ee879f\output\AndroidManifest.xml:44:83-106
	android:name
		ADDED from [com.google.firebase:firebase-iid:10.0.1] C:\Users\UNION\.android\build-cache\3ce67e214e45ff4300318dbe1b14b831b1ee879f\output\AndroidManifest.xml:44:18-82
intent-filter#com.google.firebase.INSTANCE_ID_EVENT
ADDED from [com.google.firebase:firebase-iid:10.0.1] C:\Users\UNION\.android\build-cache\3ce67e214e45ff4300318dbe1b14b831b1ee879f\output\AndroidManifest.xml:45:13-47:29
	android:priority
		ADDED from [com.google.firebase:firebase-iid:10.0.1] C:\Users\UNION\.android\build-cache\3ce67e214e45ff4300318dbe1b14b831b1ee879f\output\AndroidManifest.xml:45:28-51
action#com.google.firebase.INSTANCE_ID_EVENT
ADDED from [com.google.firebase:firebase-iid:10.0.1] C:\Users\UNION\.android\build-cache\3ce67e214e45ff4300318dbe1b14b831b1ee879f\output\AndroidManifest.xml:46:17-79
	android:name
		ADDED from [com.google.firebase:firebase-iid:10.0.1] C:\Users\UNION\.android\build-cache\3ce67e214e45ff4300318dbe1b14b831b1ee879f\output\AndroidManifest.xml:46:25-77
provider#com.google.firebase.provider.FirebaseInitProvider
ADDED from [com.google.firebase:firebase-common:10.0.1] C:\Users\UNION\.android\build-cache\85b9118ff06823f39a56e1114e26332ee505ec58\output\AndroidManifest.xml:6:9-194
	android:authorities
		ADDED from [com.google.firebase:firebase-common:10.0.1] C:\Users\UNION\.android\build-cache\85b9118ff06823f39a56e1114e26332ee505ec58\output\AndroidManifest.xml:6:19-78
	android:exported
		ADDED from [com.google.firebase:firebase-common:10.0.1] C:\Users\UNION\.android\build-cache\85b9118ff06823f39a56e1114e26332ee505ec58\output\AndroidManifest.xml:6:144-168
	android:initOrder
		ADDED from [com.google.firebase:firebase-common:10.0.1] C:\Users\UNION\.android\build-cache\85b9118ff06823f39a56e1114e26332ee505ec58\output\AndroidManifest.xml:6:169-192
	android:name
		ADDED from [com.google.firebase:firebase-common:10.0.1] C:\Users\UNION\.android\build-cache\85b9118ff06823f39a56e1114e26332ee505ec58\output\AndroidManifest.xml:6:79-143
